{
	"000000": "ZCC-0001",
	"000011": "ZCC-0002",
	"000022": "ZCC-0003",
	"000033": "ZCC-0004",
	"000044": "ZCC-0005",
	"000055": "ZCC-0006",
	"000066": "ZCC-0007",
	"000077": "ZCC-0008",
	"000088": "ZCC-0009",
	"000099": "ZCC-0010",
	"0000aa": "ZCC-0011",
	"0000bb": "ZCC-0012",
	"0000cc": "ZCC-0013",
	"0000dd": "ZCC-0014",
	"0000ee": "ZCC-0015",
	"0000ff": "ZCC-0016",
	"001100": "ZCC-0017",
	"001111": "ZCC-0018",
	"001122": "ZCC-0019",
	"001133": "ZCC-0020",
	"001144": "ZCC-0021",
	"001155": "ZCC-0022",
	"001166": "ZCC-0023",
	"001177": "ZCC-0024",
	"001188": "ZCC-0025",
	"001199": "ZCC-0026",
	"0011aa": "ZCC-0027",
	"0011bb": "ZCC-0028",
	"0011cc": "ZCC-0029",
	"0011dd": "ZCC-0030",
	"0011ee": "ZCC-0031",
	"0011ff": "ZCC-0032",
	"002200": "ZCC-0033",
	"002211": "ZCC-0034",
	"002222": "ZCC-0035",
	"002233": "ZCC-0036",
	"002244": "ZCC-0037",
	"002255": "ZCC-0038",
	"002266": "ZCC-0039",
	"002277": "ZCC-0040",
	"002288": "ZCC-0041",
	"002299": "ZCC-0042",
	"0022aa": "ZCC-0043",
	"0022bb": "ZCC-0044",
	"0022cc": "ZCC-0045",
	"0022dd": "ZCC-0046",
	"0022ee": "ZCC-0047",
	"0022ff": "ZCC-0048",
	"003300": "ZCC-0049",
	"003311": "ZCC-0050",
	"003322": "ZCC-0051",
	"003333": "ZCC-0052",
	"003344": "ZCC-0053",
	"003355": "ZCC-0054",
	"003366": "ZCC-0055",
	"003377": "ZCC-0056",
	"003388": "ZCC-0057",
	"003399": "ZCC-0058",
	"0033aa": "ZCC-0059",
	"0033bb": "ZCC-0060",
	"0033cc": "ZCC-0061",
	"0033dd": "ZCC-0062",
	"0033ee": "ZCC-0063",
	"0033ff": "ZCC-0064",
	"004400": "ZCC-0065",
	"004411": "ZCC-0066",
	"004422": "ZCC-0067",
	"004433": "ZCC-0068",
	"004444": "ZCC-0069",
	"004455": "ZCC-0070",
	"004466": "ZCC-0071",
	"004477": "ZCC-0072",
	"004499": "ZCC-0073",
	"0044aa": "ZCC-0074",
	"0044bb": "ZCC-0075",
	"0044cc": "ZCC-0076",
	"0044dd": "ZCC-0077",
	"0044ee": "ZCC-0078",
	"0044ff": "ZCC-0079",
	"005500": "ZCC-0080",
	"005511": "ZCC-0081",
	"005522": "ZCC-0082",
	"005533": "ZCC-0083",
	"005544": "ZCC-0084",
	"005555": "ZCC-0085",
	"005566": "ZCC-0086",
	"005577": "ZCC-0087",
	"005588": "ZCC-0088",
	"005599": "ZCC-0089",
	"0055aa": "ZCC-0090",
	"0055bb": "ZCC-0091",
	"0055cc": "ZCC-0092",
	"0055dd": "ZCC-0093",
	"0055ee": "ZCC-0094",
	"0055ff": "ZCC-0095",
	"006600": "ZCC-0096",
	"006611": "ZCC-0097",
	"006622": "ZCC-0098",
	"006633": "ZCC-0099",
	"006655": "ZCC-0100",
	"006666": "ZCC-0101",
	"006677": "ZCC-0102",
	"006688": "ZCC-0103",
	"006699": "ZCC-0104",
	"0066aa": "ZCC-0105",
	"0066bb": "ZCC-0106",
	"0066cc": "ZCC-0107",
	"0066dd": "ZCC-0108",
	"0066ee": "ZCC-0109",
	"0066ff": "ZCC-0110",
	"007700": "ZCC-0111",
	"007711": "ZCC-0112",
	"007722": "ZCC-0113",
	"007733": "ZCC-0114",
	"007744": "ZCC-0115",
	"007755": "ZCC-0116",
	"007766": "ZCC-0117",
	"007777": "ZCC-0118",
	"007788": "ZCC-0119",
	"007799": "ZCC-0120",
	"0077aa": "ZCC-0121",
	"0077bb": "ZCC-0122",
	"0077cc": "ZCC-0123",
	"0077dd": "ZCC-0124",
	"0077ee": "ZCC-0125",
	"0077ff": "ZCC-0126",
	"008800": "ZCC-0127",
	"008811": "ZCC-0128",
	"008822": "ZCC-0129",
	"008833": "ZCC-0130",
	"008844": "ZCC-0131",
	"008855": "ZCC-0132",
	"008866": "ZCC-0133",
	"008877": "ZCC-0134",
	"008888": "ZCC-0135",
	"008899": "ZCC-0136",
	"0088aa": "ZCC-0137",
	"0088bb": "ZCC-0138",
	"0088cc": "ZCC-0139",
	"0088dd": "ZCC-0140",
	"0088ee": "ZCC-0141",
	"0088ff": "ZCC-0142",
	"009900": "ZCC-0143",
	"009911": "ZCC-0144",
	"009933": "ZCC-0145",
	"009944": "ZCC-0146",
	"009955": "ZCC-0147",
	"009966": "ZCC-0148",
	"009977": "ZCC-0149",
	"009988": "ZCC-0150",
	"009999": "ZCC-0151",
	"0099aa": "ZCC-0152",
	"0099bb": "ZCC-0153",
	"0099cc": "ZCC-0154",
	"0099dd": "ZCC-0155",
	"0099ee": "ZCC-0156",
	"0099ff": "ZCC-0157",
	"00aa00": "ZCC-0158",
	"00aa11": "ZCC-0159",
	"00aa22": "ZCC-0160",
	"00aa33": "ZCC-0161",
	"00aa44": "ZCC-0162",
	"00aa55": "ZCC-0163",
	"00aa66": "ZCC-0164",
	"00aa77": "ZCC-0165",
	"00aa88": "ZCC-0166",
	"00aa99": "ZCC-0167",
	"00aaaa": "ZCC-0168",
	"00aabb": "ZCC-0169",
	"00aacc": "ZCC-0170",
	"00aadd": "ZCC-0171",
	"00aaee": "ZCC-0172",
	"00aaff": "ZCC-0173",
	"00bb00": "ZCC-0174",
	"00bb11": "ZCC-0175",
	"00bb22": "ZCC-0176",
	"00bb33": "ZCC-0177",
	"00bb44": "ZCC-0178",
	"00bb55": "ZCC-0179",
	"00bb66": "ZCC-0180",
	"00bb77": "ZCC-0181",
	"00bb88": "ZCC-0182",
	"00bb99": "ZCC-0183",
	"00bbaa": "ZCC-0184",
	"00bbbb": "ZCC-0185",
	"00bbcc": "ZCC-0186",
	"00bbdd": "ZCC-0187",
	"00bbee": "ZCC-0188",
	"00bbff": "ZCC-0189",
	"00cc00": "ZCC-0190",
	"00cc11": "ZCC-0191",
	"00cc22": "ZCC-0192",
	"00cc33": "ZCC-0193",
	"00cc44": "ZCC-0194",
	"00cc55": "ZCC-0195",
	"00cc66": "ZCC-0196",
	"00cc77": "ZCC-0197",
	"00cc88": "ZCC-0198",
	"00cc99": "ZCC-0199",
	"00ccaa": "ZCC-0200",
	"00ccbb": "ZCC-0201",
	"00cccc": "ZCC-0202",
	"00ccdd": "ZCC-0203",
	"00ccee": "ZCC-0204",
	"00ccff": "ZCC-0205",
	"00dd00": "ZCC-0206",
	"00dd11": "ZCC-0207",
	"00dd22": "ZCC-0208",
	"00dd33": "ZCC-0209",
	"00dd44": "ZCC-0210",
	"00dd55": "ZCC-0211",
	"00dd66": "ZCC-0212",
	"00dd77": "ZCC-0213",
	"00dd88": "ZCC-0214",
	"00dd99": "ZCC-0215",
	"00ddaa": "ZCC-0216",
	"00ddbb": "ZCC-0217",
	"00ddcc": "ZCC-0218",
	"00dddd": "ZCC-0219",
	"00ddee": "ZCC-0220",
	"00ddff": "ZCC-0221",
	"00ee00": "ZCC-0222",
	"00ee11": "ZCC-0223",
	"00ee22": "ZCC-0224",
	"00ee33": "ZCC-0225",
	"00ee44": "ZCC-0226",
	"00ee55": "ZCC-0227",
	"00ee66": "ZCC-0228",
	"00ee77": "ZCC-0229",
	"00ee88": "ZCC-0230",
	"00ee99": "ZCC-0231",
	"00eeaa": "ZCC-0232",
	"00eebb": "ZCC-0233",
	"00eecc": "ZCC-0234",
	"00eedd": "ZCC-0235",
	"00eeee": "ZCC-0236",
	"00eeff": "ZCC-0237",
	"00ff00": "ZCC-0238",
	"00ff11": "ZCC-0239",
	"00ff22": "ZCC-0240",
	"00ff33": "ZCC-0241",
	"00ff44": "ZCC-0242",
	"00ff55": "ZCC-0243",
	"00ff66": "ZCC-0244",
	"00ff77": "ZCC-0245",
	"00ff88": "ZCC-0246",
	"00ff99": "ZCC-0247",
	"00ffaa": "ZCC-0248",
	"00ffbb": "ZCC-0249",
	"00ffcc": "ZCC-0250",
	"00ffdd": "ZCC-0251",
	"00ffee": "ZCC-0252",
	"00ffff": "ZCC-0253",
	"110000": "ZCC-0254",
	"110011": "ZCC-0255",
	"110022": "ZCC-0256",
	"110033": "ZCC-0257",
	"110044": "ZCC-0258",
	"110055": "ZCC-0259",
	"110066": "ZCC-0260",
	"110077": "ZCC-0261",
	"110088": "ZCC-0262",
	"110099": "ZCC-0263",
	"1100aa": "ZCC-0264",
	"1100bb": "ZCC-0265",
	"1100cc": "ZCC-0266",
	"1100dd": "ZCC-0267",
	"1100ee": "ZCC-0268",
	"1100ff": "ZCC-0269",
	"111100": "ZCC-0270",
	"111111": "ZCC-0271",
	"111122": "ZCC-0272",
	"111133": "ZCC-0273",
	"111144": "ZCC-0274",
	"111155": "ZCC-0275",
	"111166": "ZCC-0276",
	"111177": "ZCC-0277",
	"111188": "ZCC-0278",
	"111199": "ZCC-0279",
	"1111aa": "ZCC-0280",
	"1111bb": "ZCC-0281",
	"1111cc": "ZCC-0282",
	"1111dd": "ZCC-0283",
	"1111ee": "ZCC-0284",
	"1111ff": "ZCC-0285",
	"112200": "ZCC-0286",
	"112211": "ZCC-0287",
	"112222": "ZCC-0288",
	"112233": "ZCC-0289",
	"112244": "ZCC-0290",
	"112255": "ZCC-0291",
	"112266": "ZCC-0292",
	"112277": "ZCC-0293",
	"112288": "ZCC-0294",
	"112299": "ZCC-0295",
	"1122aa": "ZCC-0296",
	"1122bb": "ZCC-0297",
	"1122cc": "ZCC-0298",
	"1122dd": "ZCC-0299",
	"1122ee": "ZCC-0300",
	"1122ff": "ZCC-0301",
	"113300": "ZCC-0302",
	"113311": "ZCC-0303",
	"113322": "ZCC-0304",
	"113333": "ZCC-0305",
	"113344": "ZCC-0306",
	"113355": "ZCC-0307",
	"113366": "ZCC-0308",
	"113377": "ZCC-0309",
	"113388": "ZCC-0310",
	"113399": "ZCC-0311",
	"1133aa": "ZCC-0312",
	"1133bb": "ZCC-0313",
	"1133cc": "ZCC-0314",
	"1133dd": "ZCC-0315",
	"1133ee": "ZCC-0316",
	"1133ff": "ZCC-0317",
	"114400": "ZCC-0318",
	"114411": "ZCC-0319",
	"114422": "ZCC-0320",
	"114433": "ZCC-0321",
	"114444": "ZCC-0322",
	"114455": "ZCC-0323",
	"114466": "ZCC-0324",
	"114477": "ZCC-0325",
	"114488": "ZCC-0326",
	"114499": "ZCC-0327",
	"1144aa": "ZCC-0328",
	"1144bb": "ZCC-0329",
	"1144cc": "ZCC-0330",
	"1144dd": "ZCC-0331",
	"1144ee": "ZCC-0332",
	"1144ff": "ZCC-0333",
	"115500": "ZCC-0334",
	"115511": "ZCC-0335",
	"115522": "ZCC-0336",
	"115533": "ZCC-0337",
	"115544": "ZCC-0338",
	"115555": "ZCC-0339",
	"115566": "ZCC-0340",
	"115577": "ZCC-0341",
	"115588": "ZCC-0342",
	"115599": "ZCC-0343",
	"1155aa": "ZCC-0344",
	"1155bb": "ZCC-0345",
	"1155cc": "ZCC-0346",
	"1155dd": "ZCC-0347",
	"1155ee": "ZCC-0348",
	"1155ff": "ZCC-0349",
	"116600": "ZCC-0350",
	"116611": "ZCC-0351",
	"116622": "ZCC-0352",
	"116633": "ZCC-0353",
	"116644": "ZCC-0354",
	"116655": "ZCC-0355",
	"116666": "ZCC-0356",
	"116677": "ZCC-0357",
	"116688": "ZCC-0358",
	"116699": "ZCC-0359",
	"1166aa": "ZCC-0360",
	"1166bb": "ZCC-0361",
	"1166cc": "ZCC-0362",
	"1166dd": "ZCC-0363",
	"1166ee": "ZCC-0364",
	"1166ff": "ZCC-0365",
	"117700": "ZCC-0366",
	"117711": "ZCC-0367",
	"117722": "ZCC-0368",
	"117733": "ZCC-0369",
	"117744": "ZCC-0370",
	"117755": "ZCC-0371",
	"117766": "ZCC-0372",
	"117777": "ZCC-0373",
	"117788": "ZCC-0374",
	"117799": "ZCC-0375",
	"1177aa": "ZCC-0376",
	"1177bb": "ZCC-0377",
	"1177cc": "ZCC-0378",
	"1177dd": "ZCC-0379",
	"1177ee": "ZCC-0380",
	"1177ff": "ZCC-0381",
	"118800": "ZCC-0382",
	"118811": "ZCC-0383",
	"118822": "ZCC-0384",
	"118833": "ZCC-0385",
	"118844": "ZCC-0386",
	"118855": "ZCC-0387",
	"118866": "ZCC-0388",
	"118877": "ZCC-0389",
	"118888": "ZCC-0390",
	"118899": "ZCC-0391",
	"1188aa": "ZCC-0392",
	"1188bb": "ZCC-0393",
	"1188cc": "ZCC-0394",
	"1188dd": "ZCC-0395",
	"1188ee": "ZCC-0396",
	"1188ff": "ZCC-0397",
	"119900": "ZCC-0398",
	"119911": "ZCC-0399",
	"119922": "ZCC-0400",
	"119933": "ZCC-0401",
	"119944": "ZCC-0402",
	"119955": "ZCC-0403",
	"119966": "ZCC-0404",
	"119977": "ZCC-0405",
	"119988": "ZCC-0406",
	"119999": "ZCC-0407",
	"1199aa": "ZCC-0408",
	"1199bb": "ZCC-0409",
	"1199cc": "ZCC-0410",
	"1199dd": "ZCC-0411",
	"1199ee": "ZCC-0412",
	"1199ff": "ZCC-0413",
	"11aa00": "ZCC-0414",
	"11aa11": "ZCC-0415",
	"11aa22": "ZCC-0416",
	"11aa33": "ZCC-0417",
	"11aa44": "ZCC-0418",
	"11aa55": "ZCC-0419",
	"11aa66": "ZCC-0420",
	"11aa77": "ZCC-0421",
	"11aa88": "ZCC-0422",
	"11aa99": "ZCC-0423",
	"11aaaa": "ZCC-0424",
	"11aabb": "ZCC-0425",
	"11aacc": "ZCC-0426",
	"11aadd": "ZCC-0427",
	"11aaee": "ZCC-0428",
	"11aaff": "ZCC-0429",
	"11bb00": "ZCC-0430",
	"11bb11": "ZCC-0431",
	"11bb22": "ZCC-0432",
	"11bb33": "ZCC-0433",
	"11bb44": "ZCC-0434",
	"11bb55": "ZCC-0435",
	"11bb66": "ZCC-0436",
	"11bb77": "ZCC-0437",
	"11bb88": "ZCC-0438",
	"11bb99": "ZCC-0439",
	"11bbaa": "ZCC-0440",
	"11bbbb": "ZCC-0441",
	"11bbcc": "ZCC-0442",
	"11bbdd": "ZCC-0443",
	"11bbee": "ZCC-0444",
	"11bbff": "ZCC-0445",
	"11cc00": "ZCC-0446",
	"11cc11": "ZCC-0447",
	"11cc22": "ZCC-0448",
	"11cc33": "ZCC-0449",
	"11cc44": "ZCC-0450",
	"11cc55": "ZCC-0451",
	"11cc66": "ZCC-0452",
	"11cc77": "ZCC-0453",
	"11cc88": "ZCC-0454",
	"11cc99": "ZCC-0455",
	"11ccaa": "ZCC-0456",
	"11ccbb": "ZCC-0457",
	"11cccc": "ZCC-0458",
	"11ccdd": "ZCC-0459",
	"11ccee": "ZCC-0460",
	"11ccff": "ZCC-0461",
	"11dd00": "ZCC-0462",
	"11dd11": "ZCC-0463",
	"11dd22": "ZCC-0464",
	"11dd33": "ZCC-0465",
	"11dd44": "ZCC-0466",
	"11dd55": "ZCC-0467",
	"11dd66": "ZCC-0468",
	"11dd77": "ZCC-0469",
	"11dd88": "ZCC-0470",
	"11dd99": "ZCC-0471",
	"11ddaa": "ZCC-0472",
	"11ddbb": "ZCC-0473",
	"11ddcc": "ZCC-0474",
	"11dddd": "ZCC-0475",
	"11ddee": "ZCC-0476",
	"11ddff": "ZCC-0477",
	"11ee00": "ZCC-0478",
	"11ee11": "ZCC-0479",
	"11ee22": "ZCC-0480",
	"11ee33": "ZCC-0481",
	"11ee44": "ZCC-0482",
	"11ee55": "ZCC-0483",
	"11ee66": "ZCC-0484",
	"11ee77": "ZCC-0485",
	"11ee88": "ZCC-0486",
	"11ee99": "ZCC-0487",
	"11eeaa": "ZCC-0488",
	"11eebb": "ZCC-0489",
	"11eecc": "ZCC-0490",
	"11eedd": "ZCC-0491",
	"11eeee": "ZCC-0492",
	"11eeff": "ZCC-0493",
	"11ff00": "ZCC-0494",
	"11ff11": "ZCC-0495",
	"11ff22": "ZCC-0496",
	"11ff33": "ZCC-0497",
	"11ff44": "ZCC-0498",
	"11ff55": "ZCC-0499",
	"11ff66": "ZCC-0500",
	"11ff77": "ZCC-0501",
	"11ff88": "ZCC-0502",
	"11ff99": "ZCC-0503",
	"11ffaa": "ZCC-0504",
	"11ffbb": "ZCC-0505",
	"11ffcc": "ZCC-0506",
	"11ffdd": "ZCC-0507",
	"11ffee": "ZCC-0508",
	"11ffff": "ZCC-0509",
	"220000": "ZCC-0510",
	"220011": "ZCC-0511",
	"220022": "ZCC-0512",
	"220033": "ZCC-0513",
	"220044": "ZCC-0514",
	"220055": "ZCC-0515",
	"220066": "ZCC-0516",
	"220077": "ZCC-0517",
	"220088": "ZCC-0518",
	"220099": "ZCC-0519",
	"2200aa": "ZCC-0520",
	"2200bb": "ZCC-0521",
	"2200cc": "ZCC-0522",
	"2200dd": "ZCC-0523",
	"2200ee": "ZCC-0524",
	"2200ff": "ZCC-0525",
	"221100": "ZCC-0526",
	"221111": "ZCC-0527",
	"221122": "ZCC-0528",
	"221133": "ZCC-0529",
	"221144": "ZCC-0530",
	"221155": "ZCC-0531",
	"221166": "ZCC-0532",
	"221177": "ZCC-0533",
	"221188": "ZCC-0534",
	"221199": "ZCC-0535",
	"2211aa": "ZCC-0536",
	"2211bb": "ZCC-0537",
	"2211cc": "ZCC-0538",
	"2211dd": "ZCC-0539",
	"2211ee": "ZCC-0540",
	"2211ff": "ZCC-0541",
	"222200": "ZCC-0542",
	"222211": "ZCC-0543",
	"222222": "ZCC-0544",
	"222233": "ZCC-0545",
	"222244": "ZCC-0546",
	"222255": "ZCC-0547",
	"222266": "ZCC-0548",
	"222277": "ZCC-0549",
	"222288": "ZCC-0550",
	"222299": "ZCC-0551",
	"2222aa": "ZCC-0552",
	"2222bb": "ZCC-0553",
	"2222cc": "ZCC-0554",
	"2222dd": "ZCC-0555",
	"2222ee": "ZCC-0556",
	"2222ff": "ZCC-0557",
	"223300": "ZCC-0558",
	"223311": "ZCC-0559",
	"223322": "ZCC-0560",
	"223333": "ZCC-0561",
	"223344": "ZCC-0562",
	"223355": "ZCC-0563",
	"223366": "ZCC-0564",
	"223377": "ZCC-0565",
	"223388": "ZCC-0566",
	"223399": "ZCC-0567",
	"2233aa": "ZCC-0568",
	"2233bb": "ZCC-0569",
	"2233cc": "ZCC-0570",
	"2233dd": "ZCC-0571",
	"2233ee": "ZCC-0572",
	"2233ff": "ZCC-0573",
	"224400": "ZCC-0574",
	"224411": "ZCC-0575",
	"224422": "ZCC-0576",
	"224433": "ZCC-0577",
	"224444": "ZCC-0578",
	"224455": "ZCC-0579",
	"224466": "ZCC-0580",
	"224477": "ZCC-0581",
	"224488": "ZCC-0582",
	"224499": "ZCC-0583",
	"2244aa": "ZCC-0584",
	"2244bb": "ZCC-0585",
	"2244cc": "ZCC-0586",
	"2244dd": "ZCC-0587",
	"2244ee": "ZCC-0588",
	"2244ff": "ZCC-0589",
	"225500": "ZCC-0590",
	"225511": "ZCC-0591",
	"225522": "ZCC-0592",
	"225533": "ZCC-0593",
	"225544": "ZCC-0594",
	"225555": "ZCC-0595",
	"225566": "ZCC-0596",
	"225577": "ZCC-0597",
	"225588": "ZCC-0598",
	"225599": "ZCC-0599",
	"2255aa": "ZCC-0600",
	"2255bb": "ZCC-0601",
	"2255cc": "ZCC-0602",
	"2255dd": "ZCC-0603",
	"2255ee": "ZCC-0604",
	"2255ff": "ZCC-0605",
	"226600": "ZCC-0606",
	"226611": "ZCC-0607",
	"226622": "ZCC-0608",
	"226633": "ZCC-0609",
	"226644": "ZCC-0610",
	"226655": "ZCC-0611",
	"226666": "ZCC-0612",
	"226677": "ZCC-0613",
	"226688": "ZCC-0614",
	"226699": "ZCC-0615",
	"2266aa": "ZCC-0616",
	"2266bb": "ZCC-0617",
	"2266cc": "ZCC-0618",
	"2266dd": "ZCC-0619",
	"2266ee": "ZCC-0620",
	"2266ff": "ZCC-0621",
	"227700": "ZCC-0622",
	"227711": "ZCC-0623",
	"227722": "ZCC-0624",
	"227733": "ZCC-0625",
	"227744": "ZCC-0626",
	"227755": "ZCC-0627",
	"227766": "ZCC-0628",
	"227777": "ZCC-0629",
	"227788": "ZCC-0630",
	"227799": "ZCC-0631",
	"2277aa": "ZCC-0632",
	"2277bb": "ZCC-0633",
	"2277cc": "ZCC-0634",
	"2277dd": "ZCC-0635",
	"2277ee": "ZCC-0636",
	"2277ff": "ZCC-0637",
	"228800": "ZCC-0638",
	"228811": "ZCC-0639",
	"228822": "ZCC-0640",
	"228833": "ZCC-0641",
	"228844": "ZCC-0642",
	"228855": "ZCC-0643",
	"228866": "ZCC-0644",
	"228877": "ZCC-0645",
	"228888": "ZCC-0646",
	"228899": "ZCC-0647",
	"2288aa": "ZCC-0648",
	"2288bb": "ZCC-0649",
	"2288cc": "ZCC-0650",
	"2288dd": "ZCC-0651",
	"2288ee": "ZCC-0652",
	"2288ff": "ZCC-0653",
	"229900": "ZCC-0654",
	"229911": "ZCC-0655",
	"229922": "ZCC-0656",
	"229933": "ZCC-0657",
	"229944": "ZCC-0658",
	"229955": "ZCC-0659",
	"229966": "ZCC-0660",
	"229977": "ZCC-0661",
	"229988": "ZCC-0662",
	"229999": "ZCC-0663",
	"2299aa": "ZCC-0664",
	"2299bb": "ZCC-0665",
	"2299cc": "ZCC-0666",
	"2299dd": "ZCC-0667",
	"2299ee": "ZCC-0668",
	"2299ff": "ZCC-0669",
	"22aa00": "ZCC-0670",
	"22aa11": "ZCC-0671",
	"22aa22": "ZCC-0672",
	"22aa33": "ZCC-0673",
	"22aa44": "ZCC-0674",
	"22aa55": "ZCC-0675",
	"22aa66": "ZCC-0676",
	"22aa77": "ZCC-0677",
	"22aa88": "ZCC-0678",
	"22aa99": "ZCC-0679",
	"22aaaa": "ZCC-0680",
	"22aabb": "ZCC-0681",
	"22aacc": "ZCC-0682",
	"22aadd": "ZCC-0683",
	"22aaee": "ZCC-0684",
	"22aaff": "ZCC-0685",
	"22bb00": "ZCC-0686",
	"22bb11": "ZCC-0687",
	"22bb22": "ZCC-0688",
	"22bb33": "ZCC-0689",
	"22bb44": "ZCC-0690",
	"22bb55": "ZCC-0691",
	"22bb66": "ZCC-0692",
	"22bb77": "ZCC-0693",
	"22bb88": "ZCC-0694",
	"22bb99": "ZCC-0695",
	"22bbaa": "ZCC-0696",
	"22bbbb": "ZCC-0697",
	"22bbcc": "ZCC-0698",
	"22bbdd": "ZCC-0699",
	"22bbee": "ZCC-0700",
	"22bbff": "ZCC-0701",
	"22cc00": "ZCC-0702",
	"22cc11": "ZCC-0703",
	"22cc22": "ZCC-0704",
	"22cc33": "ZCC-0705",
	"22cc44": "ZCC-0706",
	"22cc55": "ZCC-0707",
	"22cc66": "ZCC-0708",
	"22cc77": "ZCC-0709",
	"22cc88": "ZCC-0710",
	"22cc99": "ZCC-0711",
	"22ccaa": "ZCC-0712",
	"22ccbb": "ZCC-0713",
	"22cccc": "ZCC-0714",
	"22ccdd": "ZCC-0715",
	"22ccee": "ZCC-0716",
	"22ccff": "ZCC-0717",
	"22dd00": "ZCC-0718",
	"22dd11": "ZCC-0719",
	"22dd22": "ZCC-0720",
	"22dd33": "ZCC-0721",
	"22dd44": "ZCC-0722",
	"22dd55": "ZCC-0723",
	"22dd66": "ZCC-0724",
	"22dd77": "ZCC-0725",
	"22dd88": "ZCC-0726",
	"22dd99": "ZCC-0727",
	"22ddaa": "ZCC-0728",
	"22ddbb": "ZCC-0729",
	"22ddcc": "ZCC-0730",
	"22dddd": "ZCC-0731",
	"22ddee": "ZCC-0732",
	"22ddff": "ZCC-0733",
	"22ee00": "ZCC-0734",
	"22ee11": "ZCC-0735",
	"22ee22": "ZCC-0736",
	"22ee33": "ZCC-0737",
	"22ee44": "ZCC-0738",
	"22ee55": "ZCC-0739",
	"22ee66": "ZCC-0740",
	"22ee77": "ZCC-0741",
	"22ee88": "ZCC-0742",
	"22ee99": "ZCC-0743",
	"22eeaa": "ZCC-0744",
	"22eebb": "ZCC-0745",
	"22eecc": "ZCC-0746",
	"22eedd": "ZCC-0747",
	"22eeee": "ZCC-0748",
	"22eeff": "ZCC-0749",
	"22ff00": "ZCC-0750",
	"22ff11": "ZCC-0751",
	"22ff22": "ZCC-0752",
	"22ff33": "ZCC-0753",
	"22ff44": "ZCC-0754",
	"22ff55": "ZCC-0755",
	"22ff66": "ZCC-0756",
	"22ff77": "ZCC-0757",
	"22ff88": "ZCC-0758",
	"22ff99": "ZCC-0759",
	"22ffaa": "ZCC-0760",
	"22ffbb": "ZCC-0761",
	"22ffcc": "ZCC-0762",
	"22ffdd": "ZCC-0763",
	"22ffee": "ZCC-0764",
	"22ffff": "ZCC-0765",
	"330000": "ZCC-0766",
	"330011": "ZCC-0767",
	"330022": "ZCC-0768",
	"330033": "ZCC-0769",
	"330044": "ZCC-0770",
	"330055": "ZCC-0771",
	"330066": "ZCC-0772",
	"330077": "ZCC-0773",
	"330088": "ZCC-0774",
	"330099": "ZCC-0775",
	"3300aa": "ZCC-0776",
	"3300bb": "ZCC-0777",
	"3300cc": "ZCC-0778",
	"3300dd": "ZCC-0779",
	"3300ee": "ZCC-0780",
	"3300ff": "ZCC-0781",
	"331100": "ZCC-0782",
	"331111": "ZCC-0783",
	"331122": "ZCC-0784",
	"331133": "ZCC-0785",
	"331144": "ZCC-0786",
	"331155": "ZCC-0787",
	"331166": "ZCC-0788",
	"331177": "ZCC-0789",
	"331188": "ZCC-0790",
	"331199": "ZCC-0791",
	"3311aa": "ZCC-0792",
	"3311bb": "ZCC-0793",
	"3311cc": "ZCC-0794",
	"3311dd": "ZCC-0795",
	"3311ee": "ZCC-0796",
	"3311ff": "ZCC-0797",
	"332200": "ZCC-0798",
	"332211": "ZCC-0799",
	"332222": "ZCC-0800",
	"332233": "ZCC-0801",
	"332244": "ZCC-0802",
	"332255": "ZCC-0803",
	"332266": "ZCC-0804",
	"332277": "ZCC-0805",
	"332288": "ZCC-0806",
	"332299": "ZCC-0807",
	"3322aa": "ZCC-0808",
	"3322bb": "ZCC-0809",
	"3322cc": "ZCC-0810",
	"3322dd": "ZCC-0811",
	"3322ee": "ZCC-0812",
	"3322ff": "ZCC-0813",
	"333300": "ZCC-0814",
	"333311": "ZCC-0815",
	"333322": "ZCC-0816",
	"333333": "ZCC-0817",
	"333344": "ZCC-0818",
	"333355": "ZCC-0819",
	"333366": "ZCC-0820",
	"333377": "ZCC-0821",
	"333388": "ZCC-0822",
	"333399": "ZCC-0823",
	"3333aa": "ZCC-0824",
	"3333bb": "ZCC-0825",
	"3333cc": "ZCC-0826",
	"3333dd": "ZCC-0827",
	"3333ee": "ZCC-0828",
	"3333ff": "ZCC-0829",
	"334400": "ZCC-0830",
	"334411": "ZCC-0831",
	"334422": "ZCC-0832",
	"334433": "ZCC-0833",
	"334444": "ZCC-0834",
	"334455": "ZCC-0835",
	"334466": "ZCC-0836",
	"334477": "ZCC-0837",
	"334488": "ZCC-0838",
	"334499": "ZCC-0839",
	"3344aa": "ZCC-0840",
	"3344bb": "ZCC-0841",
	"3344cc": "ZCC-0842",
	"3344dd": "ZCC-0843",
	"3344ee": "ZCC-0844",
	"3344ff": "ZCC-0845",
	"335500": "ZCC-0846",
	"335511": "ZCC-0847",
	"335522": "ZCC-0848",
	"335533": "ZCC-0849",
	"335544": "ZCC-0850",
	"335555": "ZCC-0851",
	"335566": "ZCC-0852",
	"335577": "ZCC-0853",
	"335588": "ZCC-0854",
	"335599": "ZCC-0855",
	"3355aa": "ZCC-0856",
	"3355bb": "ZCC-0857",
	"3355cc": "ZCC-0858",
	"3355dd": "ZCC-0859",
	"3355ee": "ZCC-0860",
	"3355ff": "ZCC-0861",
	"336600": "ZCC-0862",
	"336611": "ZCC-0863",
	"336622": "ZCC-0864",
	"336633": "ZCC-0865",
	"336644": "ZCC-0866",
	"336655": "ZCC-0867",
	"336666": "ZCC-0868",
	"336677": "ZCC-0869",
	"336688": "ZCC-0870",
	"336699": "ZCC-0871",
	"3366aa": "ZCC-0872",
	"3366bb": "ZCC-0873",
	"3366cc": "ZCC-0874",
	"3366dd": "ZCC-0875",
	"3366ee": "ZCC-0876",
	"3366ff": "ZCC-0877",
	"337700": "ZCC-0878",
	"337711": "ZCC-0879",
	"337722": "ZCC-0880",
	"337733": "ZCC-0881",
	"337744": "ZCC-0882",
	"337755": "ZCC-0883",
	"337766": "ZCC-0884",
	"337777": "ZCC-0885",
	"337788": "ZCC-0886",
	"337799": "ZCC-0887",
	"3377aa": "ZCC-0888",
	"3377bb": "ZCC-0889",
	"3377cc": "ZCC-0890",
	"3377dd": "ZCC-0891",
	"3377ee": "ZCC-0892",
	"3377ff": "ZCC-0893",
	"338800": "ZCC-0894",
	"338811": "ZCC-0895",
	"338822": "ZCC-0896",
	"338833": "ZCC-0897",
	"338844": "ZCC-0898",
	"338855": "ZCC-0899",
	"338866": "ZCC-0900",
	"338877": "ZCC-0901",
	"338888": "ZCC-0902",
	"338899": "ZCC-0903",
	"3388aa": "ZCC-0904",
	"3388bb": "ZCC-0905",
	"3388cc": "ZCC-0906",
	"3388dd": "ZCC-0907",
	"3388ee": "ZCC-0908",
	"3388ff": "ZCC-0909",
	"339900": "ZCC-0910",
	"339911": "ZCC-0911",
	"339922": "ZCC-0912",
	"339933": "ZCC-0913",
	"339944": "ZCC-0914",
	"339955": "ZCC-0915",
	"339966": "ZCC-0916",
	"339977": "ZCC-0917",
	"339988": "ZCC-0918",
	"339999": "ZCC-0919",
	"3399aa": "ZCC-0920",
	"3399bb": "ZCC-0921",
	"3399cc": "ZCC-0922",
	"3399dd": "ZCC-0923",
	"3399ee": "ZCC-0924",
	"3399ff": "ZCC-0925",
	"33aa00": "ZCC-0926",
	"33aa11": "ZCC-0927",
	"33aa22": "ZCC-0928",
	"33aa33": "ZCC-0929",
	"33aa44": "ZCC-0930",
	"33aa55": "ZCC-0931",
	"33aa66": "ZCC-0932",
	"33aa77": "ZCC-0933",
	"33aa88": "ZCC-0934",
	"33aa99": "ZCC-0935",
	"33aaaa": "ZCC-0936",
	"33aabb": "ZCC-0937",
	"33aacc": "ZCC-0938",
	"33aadd": "ZCC-0939",
	"33aaee": "ZCC-0940",
	"33aaff": "ZCC-0941",
	"33bb00": "ZCC-0942",
	"33bb11": "ZCC-0943",
	"33bb22": "ZCC-0944",
	"33bb33": "ZCC-0945",
	"33bb44": "ZCC-0946",
	"33bb55": "ZCC-0947",
	"33bb66": "ZCC-0948",
	"33bb77": "ZCC-0949",
	"33bb88": "ZCC-0950",
	"33bb99": "ZCC-0951",
	"33bbaa": "ZCC-0952",
	"33bbbb": "ZCC-0953",
	"33bbcc": "ZCC-0954",
	"33bbdd": "ZCC-0955",
	"33bbee": "ZCC-0956",
	"33bbff": "ZCC-0957",
	"33cc00": "ZCC-0958",
	"33cc11": "ZCC-0959",
	"33cc22": "ZCC-0960",
	"33cc33": "ZCC-0961",
	"33cc44": "ZCC-0962",
	"33cc55": "ZCC-0963",
	"33cc66": "ZCC-0964",
	"33cc77": "ZCC-0965",
	"33cc88": "ZCC-0966",
	"33cc99": "ZCC-0967",
	"33ccaa": "ZCC-0968",
	"33ccbb": "ZCC-0969",
	"33cccc": "ZCC-0970",
	"33ccdd": "ZCC-0971",
	"33ccee": "ZCC-0972",
	"33ccff": "ZCC-0973",
	"33dd00": "ZCC-0974",
	"33dd11": "ZCC-0975",
	"33dd22": "ZCC-0976",
	"33dd33": "ZCC-0977",
	"33dd44": "ZCC-0978",
	"33dd55": "ZCC-0979",
	"33dd66": "ZCC-0980",
	"33dd77": "ZCC-0981",
	"33dd88": "ZCC-0982",
	"33dd99": "ZCC-0983",
	"33ddaa": "ZCC-0984",
	"33ddbb": "ZCC-0985",
	"33ddcc": "ZCC-0986",
	"33dddd": "ZCC-0987",
	"33ddee": "ZCC-0988",
	"33ddff": "ZCC-0989",
	"33ee00": "ZCC-0990",
	"33ee11": "ZCC-0991",
	"33ee22": "ZCC-0992",
	"33ee33": "ZCC-0993",
	"33ee44": "ZCC-0994",
	"33ee55": "ZCC-0995",
	"33ee66": "ZCC-0996",
	"33ee77": "ZCC-0997",
	"33ee88": "ZCC-0998",
	"33ee99": "ZCC-0999",
	"33eeaa": "ZCC-1000",
	"33eebb": "ZCC-1001",
	"33eecc": "ZCC-1002",
	"33eedd": "ZCC-1003",
	"33eeee": "ZCC-1004",
	"33eeff": "ZCC-1005",
	"33ff00": "ZCC-1006",
	"33ff11": "ZCC-1007",
	"33ff22": "ZCC-1008",
	"33ff33": "ZCC-1009",
	"33ff44": "ZCC-1010",
	"33ff55": "ZCC-1011",
	"33ff66": "ZCC-1012",
	"33ff77": "ZCC-1013",
	"33ff88": "ZCC-1014",
	"33ff99": "ZCC-1015",
	"33ffaa": "ZCC-1016",
	"33ffbb": "ZCC-1017",
	"33ffcc": "ZCC-1018",
	"33ffdd": "ZCC-1019",
	"33ffee": "ZCC-1020",
	"33ffff": "ZCC-1021",
	"440000": "ZCC-1022",
	"440011": "ZCC-1023",
	"440022": "ZCC-1024",
	"440033": "ZCC-1025",
	"440044": "ZCC-1026",
	"440055": "ZCC-1027",
	"440066": "ZCC-1028",
	"440077": "ZCC-1029",
	"440088": "ZCC-1030",
	"440099": "ZCC-1031",
	"4400aa": "ZCC-1032",
	"4400bb": "ZCC-1033",
	"4400cc": "ZCC-1034",
	"4400dd": "ZCC-1035",
	"4400ee": "ZCC-1036",
	"4400ff": "ZCC-1037",
	"441100": "ZCC-1038",
	"441111": "ZCC-1039",
	"441122": "ZCC-1040",
	"441133": "ZCC-1041",
	"441144": "ZCC-1042",
	"441155": "ZCC-1043",
	"441166": "ZCC-1044",
	"441177": "ZCC-1045",
	"441188": "ZCC-1046",
	"441199": "ZCC-1047",
	"4411aa": "ZCC-1048",
	"4411bb": "ZCC-1049",
	"4411cc": "ZCC-1050",
	"4411dd": "ZCC-1051",
	"4411ee": "ZCC-1052",
	"4411ff": "ZCC-1053",
	"442200": "ZCC-1054",
	"442211": "ZCC-1055",
	"442222": "ZCC-1056",
	"442233": "ZCC-1057",
	"442244": "ZCC-1058",
	"442255": "ZCC-1059",
	"442266": "ZCC-1060",
	"442277": "ZCC-1061",
	"442288": "ZCC-1062",
	"442299": "ZCC-1063",
	"4422aa": "ZCC-1064",
	"4422bb": "ZCC-1065",
	"4422cc": "ZCC-1066",
	"4422dd": "ZCC-1067",
	"4422ee": "ZCC-1068",
	"4422ff": "ZCC-1069",
	"443300": "ZCC-1070",
	"443311": "ZCC-1071",
	"443322": "ZCC-1072",
	"443333": "ZCC-1073",
	"443344": "ZCC-1074",
	"443355": "ZCC-1075",
	"443366": "ZCC-1076",
	"443377": "ZCC-1077",
	"443388": "ZCC-1078",
	"443399": "ZCC-1079",
	"4433aa": "ZCC-1080",
	"4433bb": "ZCC-1081",
	"4433cc": "ZCC-1082",
	"4433dd": "ZCC-1083",
	"4433ee": "ZCC-1084",
	"4433ff": "ZCC-1085",
	"444400": "ZCC-1086",
	"444411": "ZCC-1087",
	"444422": "ZCC-1088",
	"444433": "ZCC-1089",
	"444444": "ZCC-1090",
	"444455": "ZCC-1091",
	"444466": "ZCC-1092",
	"444477": "ZCC-1093",
	"444488": "ZCC-1094",
	"444499": "ZCC-1095",
	"4444aa": "ZCC-1096",
	"4444bb": "ZCC-1097",
	"4444cc": "ZCC-1098",
	"4444dd": "ZCC-1099",
	"4444ee": "ZCC-1100",
	"4444ff": "ZCC-1101",
	"445500": "ZCC-1102",
	"445511": "ZCC-1103",
	"445522": "ZCC-1104",
	"445533": "ZCC-1105",
	"445544": "ZCC-1106",
	"445555": "ZCC-1107",
	"445566": "ZCC-1108",
	"445577": "ZCC-1109",
	"445588": "ZCC-1110",
	"445599": "ZCC-1111",
	"4455aa": "ZCC-1112",
	"4455bb": "ZCC-1113",
	"4455cc": "ZCC-1114",
	"4455dd": "ZCC-1115",
	"4455ee": "ZCC-1116",
	"4455ff": "ZCC-1117",
	"446600": "ZCC-1118",
	"446611": "ZCC-1119",
	"446622": "ZCC-1120",
	"446633": "ZCC-1121",
	"446644": "ZCC-1122",
	"446655": "ZCC-1123",
	"446666": "ZCC-1124",
	"446677": "ZCC-1125",
	"446688": "ZCC-1126",
	"446699": "ZCC-1127",
	"4466aa": "ZCC-1128",
	"4466bb": "ZCC-1129",
	"4466cc": "ZCC-1130",
	"4466dd": "ZCC-1131",
	"4466ee": "ZCC-1132",
	"4466ff": "ZCC-1133",
	"447700": "ZCC-1134",
	"447711": "ZCC-1135",
	"447722": "ZCC-1136",
	"447733": "ZCC-1137",
	"447744": "ZCC-1138",
	"447755": "ZCC-1139",
	"447766": "ZCC-1140",
	"447777": "ZCC-1141",
	"447788": "ZCC-1142",
	"447799": "ZCC-1143",
	"4477aa": "ZCC-1144",
	"4477bb": "ZCC-1145",
	"4477cc": "ZCC-1146",
	"4477dd": "ZCC-1147",
	"4477ee": "ZCC-1148",
	"4477ff": "ZCC-1149",
	"004488": "ZCC-1150",
	"448800": "ZCC-1151",
	"448811": "ZCC-1152",
	"448822": "ZCC-1153",
	"448833": "ZCC-1154",
	"448844": "ZCC-1155",
	"448855": "ZCC-1156",
	"448866": "ZCC-1157",
	"448877": "ZCC-1158",
	"448888": "ZCC-1159",
	"448899": "ZCC-1160",
	"4488aa": "ZCC-1161",
	"4488bb": "ZCC-1162",
	"4488cc": "ZCC-1163",
	"4488dd": "ZCC-1164",
	"4488ee": "ZCC-1165",
	"4488ff": "ZCC-1166",
	"449900": "ZCC-1167",
	"449911": "ZCC-1168",
	"449922": "ZCC-1169",
	"449933": "ZCC-1170",
	"449944": "ZCC-1171",
	"449955": "ZCC-1172",
	"449966": "ZCC-1173",
	"449977": "ZCC-1174",
	"449988": "ZCC-1175",
	"449999": "ZCC-1176",
	"4499aa": "ZCC-1177",
	"4499bb": "ZCC-1178",
	"4499cc": "ZCC-1179",
	"4499dd": "ZCC-1180",
	"4499ee": "ZCC-1181",
	"4499ff": "ZCC-1182",
	"44aa00": "ZCC-1183",
	"44aa11": "ZCC-1184",
	"44aa22": "ZCC-1185",
	"44aa33": "ZCC-1186",
	"44aa44": "ZCC-1187",
	"44aa55": "ZCC-1188",
	"44aa66": "ZCC-1189",
	"44aa77": "ZCC-1190",
	"44aa88": "ZCC-1191",
	"44aa99": "ZCC-1192",
	"44aaaa": "ZCC-1193",
	"44aabb": "ZCC-1194",
	"44aacc": "ZCC-1195",
	"44aadd": "ZCC-1196",
	"44aaee": "ZCC-1197",
	"44aaff": "ZCC-1198",
	"44bb00": "ZCC-1199",
	"44bb11": "ZCC-1200",
	"44bb22": "ZCC-1201",
	"44bb33": "ZCC-1202",
	"44bb44": "ZCC-1203",
	"44bb55": "ZCC-1204",
	"44bb66": "ZCC-1205",
	"44bb77": "ZCC-1206",
	"44bb88": "ZCC-1207",
	"44bb99": "ZCC-1208",
	"44bbaa": "ZCC-1209",
	"44bbbb": "ZCC-1210",
	"44bbcc": "ZCC-1211",
	"44bbdd": "ZCC-1212",
	"44bbee": "ZCC-1213",
	"44bbff": "ZCC-1214",
	"44cc00": "ZCC-1215",
	"44cc11": "ZCC-1216",
	"44cc22": "ZCC-1217",
	"44cc33": "ZCC-1218",
	"44cc44": "ZCC-1219",
	"44cc55": "ZCC-1220",
	"44cc66": "ZCC-1221",
	"44cc77": "ZCC-1222",
	"44cc88": "ZCC-1223",
	"44cc99": "ZCC-1224",
	"44ccaa": "ZCC-1225",
	"44ccbb": "ZCC-1226",
	"44cccc": "ZCC-1227",
	"44ccdd": "ZCC-1228",
	"44ccee": "ZCC-1229",
	"44ccff": "ZCC-1230",
	"44dd00": "ZCC-1231",
	"44dd11": "ZCC-1232",
	"44dd22": "ZCC-1233",
	"44dd33": "ZCC-1234",
	"44dd44": "ZCC-1235",
	"44dd55": "ZCC-1236",
	"44dd66": "ZCC-1237",
	"44dd77": "ZCC-1238",
	"44dd88": "ZCC-1239",
	"44dd99": "ZCC-1240",
	"44ddaa": "ZCC-1241",
	"44ddbb": "ZCC-1242",
	"44ddcc": "ZCC-1243",
	"44dddd": "ZCC-1244",
	"44ddee": "ZCC-1245",
	"44ddff": "ZCC-1246",
	"44ee00": "ZCC-1247",
	"44ee11": "ZCC-1248",
	"44ee22": "ZCC-1249",
	"44ee33": "ZCC-1250",
	"44ee44": "ZCC-1251",
	"44ee55": "ZCC-1252",
	"44ee66": "ZCC-1253",
	"44ee77": "ZCC-1254",
	"44ee88": "ZCC-1255",
	"44ee99": "ZCC-1256",
	"44eeaa": "ZCC-1257",
	"44eebb": "ZCC-1258",
	"44eecc": "ZCC-1259",
	"44eedd": "ZCC-1260",
	"44eeee": "ZCC-1261",
	"44eeff": "ZCC-1262",
	"44ff00": "ZCC-1263",
	"44ff11": "ZCC-1264",
	"44ff22": "ZCC-1265",
	"44ff33": "ZCC-1266",
	"44ff44": "ZCC-1267",
	"44ff55": "ZCC-1268",
	"44ff66": "ZCC-1269",
	"44ff77": "ZCC-1270",
	"44ff88": "ZCC-1271",
	"44ff99": "ZCC-1272",
	"44ffaa": "ZCC-1273",
	"44ffbb": "ZCC-1274",
	"44ffcc": "ZCC-1275",
	"44ffdd": "ZCC-1276",
	"44ffee": "ZCC-1277",
	"44ffff": "ZCC-1278",
	"550000": "ZCC-1279",
	"550011": "ZCC-1280",
	"550022": "ZCC-1281",
	"550033": "ZCC-1282",
	"550044": "ZCC-1283",
	"550055": "ZCC-1284",
	"550066": "ZCC-1285",
	"550077": "ZCC-1286",
	"550088": "ZCC-1287",
	"550099": "ZCC-1288",
	"5500aa": "ZCC-1289",
	"5500bb": "ZCC-1290",
	"5500cc": "ZCC-1291",
	"5500dd": "ZCC-1292",
	"5500ee": "ZCC-1293",
	"5500ff": "ZCC-1294",
	"551100": "ZCC-1295",
	"551111": "ZCC-1296",
	"551122": "ZCC-1297",
	"551133": "ZCC-1298",
	"551144": "ZCC-1299",
	"551155": "ZCC-1300",
	"551166": "ZCC-1301",
	"551177": "ZCC-1302",
	"551188": "ZCC-1303",
	"551199": "ZCC-1304",
	"5511aa": "ZCC-1305",
	"5511bb": "ZCC-1306",
	"5511cc": "ZCC-1307",
	"5511dd": "ZCC-1308",
	"5511ee": "ZCC-1309",
	"5511ff": "ZCC-1310",
	"552200": "ZCC-1311",
	"552211": "ZCC-1312",
	"552222": "ZCC-1313",
	"552233": "ZCC-1314",
	"552244": "ZCC-1315",
	"552255": "ZCC-1316",
	"552266": "ZCC-1317",
	"552277": "ZCC-1318",
	"552288": "ZCC-1319",
	"552299": "ZCC-1320",
	"5522aa": "ZCC-1321",
	"5522bb": "ZCC-1322",
	"5522cc": "ZCC-1323",
	"5522dd": "ZCC-1324",
	"5522ee": "ZCC-1325",
	"5522ff": "ZCC-1326",
	"553300": "ZCC-1327",
	"553311": "ZCC-1328",
	"553322": "ZCC-1329",
	"553333": "ZCC-1330",
	"553344": "ZCC-1331",
	"553355": "ZCC-1332",
	"553366": "ZCC-1333",
	"553377": "ZCC-1334",
	"553388": "ZCC-1335",
	"553399": "ZCC-1336",
	"5533aa": "ZCC-1337",
	"5533bb": "ZCC-1338",
	"5533cc": "ZCC-1339",
	"5533dd": "ZCC-1340",
	"5533ee": "ZCC-1341",
	"5533ff": "ZCC-1342",
	"554400": "ZCC-1343",
	"554411": "ZCC-1344",
	"554422": "ZCC-1345",
	"554433": "ZCC-1346",
	"554444": "ZCC-1347",
	"554455": "ZCC-1348",
	"554466": "ZCC-1349",
	"554477": "ZCC-1350",
	"554488": "ZCC-1351",
	"554499": "ZCC-1352",
	"5544aa": "ZCC-1353",
	"5544bb": "ZCC-1354",
	"5544cc": "ZCC-1355",
	"5544dd": "ZCC-1356",
	"5544ee": "ZCC-1357",
	"5544ff": "ZCC-1358",
	"555500": "ZCC-1359",
	"555511": "ZCC-1360",
	"555522": "ZCC-1361",
	"555533": "ZCC-1362",
	"555544": "ZCC-1363",
	"555555": "ZCC-1364",
	"555566": "ZCC-1365",
	"555577": "ZCC-1366",
	"555588": "ZCC-1367",
	"555599": "ZCC-1368",
	"5555aa": "ZCC-1369",
	"5555bb": "ZCC-1370",
	"5555cc": "ZCC-1371",
	"5555dd": "ZCC-1372",
	"5555ee": "ZCC-1373",
	"5555ff": "ZCC-1374",
	"556600": "ZCC-1375",
	"556611": "ZCC-1376",
	"556622": "ZCC-1377",
	"556633": "ZCC-1378",
	"556644": "ZCC-1379",
	"556655": "ZCC-1380",
	"556666": "ZCC-1381",
	"556677": "ZCC-1382",
	"556688": "ZCC-1383",
	"556699": "ZCC-1384",
	"5566aa": "ZCC-1385",
	"5566bb": "ZCC-1386",
	"5566cc": "ZCC-1387",
	"5566dd": "ZCC-1388",
	"5566ee": "ZCC-1389",
	"5566ff": "ZCC-1390",
	"557700": "ZCC-1391",
	"557711": "ZCC-1392",
	"557722": "ZCC-1393",
	"557733": "ZCC-1394",
	"557744": "ZCC-1395",
	"557755": "ZCC-1396",
	"557766": "ZCC-1397",
	"557777": "ZCC-1398",
	"557788": "ZCC-1399",
	"557799": "ZCC-1400",
	"5577aa": "ZCC-1401",
	"5577bb": "ZCC-1402",
	"5577cc": "ZCC-1403",
	"5577dd": "ZCC-1404",
	"5577ee": "ZCC-1405",
	"5577ff": "ZCC-1406",
	"558800": "ZCC-1407",
	"558811": "ZCC-1408",
	"558822": "ZCC-1409",
	"558833": "ZCC-1410",
	"558844": "ZCC-1411",
	"558855": "ZCC-1412",
	"558866": "ZCC-1413",
	"558877": "ZCC-1414",
	"558888": "ZCC-1415",
	"558899": "ZCC-1416",
	"5588aa": "ZCC-1417",
	"5588bb": "ZCC-1418",
	"5588cc": "ZCC-1419",
	"5588dd": "ZCC-1420",
	"5588ee": "ZCC-1421",
	"5588ff": "ZCC-1422",
	"559900": "ZCC-1423",
	"559911": "ZCC-1424",
	"559922": "ZCC-1425",
	"559933": "ZCC-1426",
	"559944": "ZCC-1427",
	"559955": "ZCC-1428",
	"559966": "ZCC-1429",
	"559977": "ZCC-1430",
	"559988": "ZCC-1431",
	"559999": "ZCC-1432",
	"5599aa": "ZCC-1433",
	"5599bb": "ZCC-1434",
	"5599cc": "ZCC-1435",
	"5599dd": "ZCC-1436",
	"5599ee": "ZCC-1437",
	"5599ff": "ZCC-1438",
	"55aa00": "ZCC-1439",
	"55aa11": "ZCC-1440",
	"55aa22": "ZCC-1441",
	"55aa33": "ZCC-1442",
	"55aa44": "ZCC-1443",
	"55aa55": "ZCC-1444",
	"55aa66": "ZCC-1445",
	"55aa77": "ZCC-1446",
	"55aa88": "ZCC-1447",
	"55aa99": "ZCC-1448",
	"55aaaa": "ZCC-1449",
	"55aabb": "ZCC-1450",
	"55aacc": "ZCC-1451",
	"55aadd": "ZCC-1452",
	"55aaee": "ZCC-1453",
	"55aaff": "ZCC-1454",
	"55bb00": "ZCC-1455",
	"55bb11": "ZCC-1456",
	"55bb22": "ZCC-1457",
	"55bb33": "ZCC-1458",
	"55bb44": "ZCC-1459",
	"55bb55": "ZCC-1460",
	"55bb66": "ZCC-1461",
	"55bb77": "ZCC-1462",
	"55bb88": "ZCC-1463",
	"55bb99": "ZCC-1464",
	"55bbaa": "ZCC-1465",
	"55bbbb": "ZCC-1466",
	"55bbcc": "ZCC-1467",
	"55bbdd": "ZCC-1468",
	"55bbee": "ZCC-1469",
	"55bbff": "ZCC-1470",
	"55cc00": "ZCC-1471",
	"55cc11": "ZCC-1472",
	"55cc22": "ZCC-1473",
	"55cc33": "ZCC-1474",
	"55cc44": "ZCC-1475",
	"55cc55": "ZCC-1476",
	"55cc66": "ZCC-1477",
	"55cc77": "ZCC-1478",
	"55cc88": "ZCC-1479",
	"55cc99": "ZCC-1480",
	"55ccaa": "ZCC-1481",
	"55ccbb": "ZCC-1482",
	"55cccc": "ZCC-1483",
	"55ccdd": "ZCC-1484",
	"55ccee": "ZCC-1485",
	"55ccff": "ZCC-1486",
	"55dd00": "ZCC-1487",
	"55dd11": "ZCC-1488",
	"55dd22": "ZCC-1489",
	"55dd33": "ZCC-1490",
	"55dd44": "ZCC-1491",
	"55dd55": "ZCC-1492",
	"55dd66": "ZCC-1493",
	"55dd77": "ZCC-1494",
	"55dd88": "ZCC-1495",
	"55dd99": "ZCC-1496",
	"55ddaa": "ZCC-1497",
	"55ddbb": "ZCC-1498",
	"55ddcc": "ZCC-1499",
	"55dddd": "ZCC-1500",
	"55ddee": "ZCC-1501",
	"55ddff": "ZCC-1502",
	"55ee00": "ZCC-1503",
	"55ee11": "ZCC-1504",
	"55ee22": "ZCC-1505",
	"55ee33": "ZCC-1506",
	"55ee44": "ZCC-1507",
	"55ee55": "ZCC-1508",
	"55ee66": "ZCC-1509",
	"55ee77": "ZCC-1510",
	"55ee88": "ZCC-1511",
	"55ee99": "ZCC-1512",
	"55eeaa": "ZCC-1513",
	"55eebb": "ZCC-1514",
	"55eecc": "ZCC-1515",
	"55eedd": "ZCC-1516",
	"55eeee": "ZCC-1517",
	"55eeff": "ZCC-1518",
	"55ff00": "ZCC-1519",
	"55ff11": "ZCC-1520",
	"55ff22": "ZCC-1521",
	"55ff33": "ZCC-1522",
	"55ff44": "ZCC-1523",
	"55ff55": "ZCC-1524",
	"55ff66": "ZCC-1525",
	"55ff77": "ZCC-1526",
	"55ff88": "ZCC-1527",
	"55ff99": "ZCC-1528",
	"55ffaa": "ZCC-1529",
	"55ffbb": "ZCC-1530",
	"55ffcc": "ZCC-1531",
	"55ffdd": "ZCC-1532",
	"55ffee": "ZCC-1533",
	"55ffff": "ZCC-1534",
	"660000": "ZCC-1535",
	"660011": "ZCC-1536",
	"660022": "ZCC-1537",
	"660033": "ZCC-1538",
	"660044": "ZCC-1539",
	"660055": "ZCC-1540",
	"660066": "ZCC-1541",
	"660077": "ZCC-1542",
	"660088": "ZCC-1543",
	"660099": "ZCC-1544",
	"6600aa": "ZCC-1545",
	"6600bb": "ZCC-1546",
	"6600cc": "ZCC-1547",
	"6600dd": "ZCC-1548",
	"6600ee": "ZCC-1549",
	"6600ff": "ZCC-1550",
	"661100": "ZCC-1551",
	"661111": "ZCC-1552",
	"661122": "ZCC-1553",
	"661133": "ZCC-1554",
	"661144": "ZCC-1555",
	"661155": "ZCC-1556",
	"661166": "ZCC-1557",
	"661177": "ZCC-1558",
	"661188": "ZCC-1559",
	"661199": "ZCC-1560",
	"6611aa": "ZCC-1561",
	"6611bb": "ZCC-1562",
	"6611cc": "ZCC-1563",
	"6611dd": "ZCC-1564",
	"6611ee": "ZCC-1565",
	"6611ff": "ZCC-1566",
	"662200": "ZCC-1567",
	"662211": "ZCC-1568",
	"662222": "ZCC-1569",
	"662233": "ZCC-1570",
	"662244": "ZCC-1571",
	"662255": "ZCC-1572",
	"662266": "ZCC-1573",
	"662277": "ZCC-1574",
	"662288": "ZCC-1575",
	"662299": "ZCC-1576",
	"6622aa": "ZCC-1577",
	"6622bb": "ZCC-1578",
	"6622cc": "ZCC-1579",
	"6622dd": "ZCC-1580",
	"6622ee": "ZCC-1581",
	"6622ff": "ZCC-1582",
	"663300": "ZCC-1583",
	"663311": "ZCC-1584",
	"663322": "ZCC-1585",
	"663333": "ZCC-1586",
	"663344": "ZCC-1587",
	"663355": "ZCC-1588",
	"663366": "ZCC-1589",
	"663377": "ZCC-1590",
	"663388": "ZCC-1591",
	"663399": "ZCC-1592",
	"6633aa": "ZCC-1593",
	"6633bb": "ZCC-1594",
	"6633cc": "ZCC-1595",
	"6633dd": "ZCC-1596",
	"6633ee": "ZCC-1597",
	"6633ff": "ZCC-1598",
	"006644": "ZCC-1599",
	"664400": "ZCC-1600",
	"664411": "ZCC-1601",
	"664422": "ZCC-1602",
	"664433": "ZCC-1603",
	"664444": "ZCC-1604",
	"664455": "ZCC-1605",
	"664466": "ZCC-1606",
	"664477": "ZCC-1607",
	"664488": "ZCC-1608",
	"664499": "ZCC-1609",
	"6644aa": "ZCC-1610",
	"6644bb": "ZCC-1611",
	"6644cc": "ZCC-1612",
	"6644dd": "ZCC-1613",
	"6644ee": "ZCC-1614",
	"6644ff": "ZCC-1615",
	"665500": "ZCC-1616",
	"665511": "ZCC-1617",
	"665522": "ZCC-1618",
	"665533": "ZCC-1619",
	"665544": "ZCC-1620",
	"665555": "ZCC-1621",
	"665566": "ZCC-1622",
	"665577": "ZCC-1623",
	"665588": "ZCC-1624",
	"665599": "ZCC-1625",
	"6655aa": "ZCC-1626",
	"6655bb": "ZCC-1627",
	"6655cc": "ZCC-1628",
	"6655dd": "ZCC-1629",
	"6655ee": "ZCC-1630",
	"6655ff": "ZCC-1631",
	"666600": "ZCC-1632",
	"666611": "ZCC-1633",
	"666622": "ZCC-1634",
	"666633": "ZCC-1635",
	"666644": "ZCC-1636",
	"666655": "ZCC-1637",
	"666666": "ZCC-1638",
	"666677": "ZCC-1639",
	"666688": "ZCC-1640",
	"666699": "ZCC-1641",
	"6666aa": "ZCC-1642",
	"6666bb": "ZCC-1643",
	"6666cc": "ZCC-1644",
	"6666dd": "ZCC-1645",
	"6666ee": "ZCC-1646",
	"6666ff": "ZCC-1647",
	"667700": "ZCC-1648",
	"667711": "ZCC-1649",
	"667722": "ZCC-1650",
	"667733": "ZCC-1651",
	"667744": "ZCC-1652",
	"667755": "ZCC-1653",
	"667766": "ZCC-1654",
	"667777": "ZCC-1655",
	"667788": "ZCC-1656",
	"667799": "ZCC-1657",
	"6677aa": "ZCC-1658",
	"6677bb": "ZCC-1659",
	"6677cc": "ZCC-1660",
	"6677dd": "ZCC-1661",
	"6677ee": "ZCC-1662",
	"6677ff": "ZCC-1663",
	"668800": "ZCC-1664",
	"668811": "ZCC-1665",
	"668822": "ZCC-1666",
	"668833": "ZCC-1667",
	"668844": "ZCC-1668",
	"668855": "ZCC-1669",
	"668866": "ZCC-1670",
	"668877": "ZCC-1671",
	"668888": "ZCC-1672",
	"668899": "ZCC-1673",
	"6688aa": "ZCC-1674",
	"6688bb": "ZCC-1675",
	"6688cc": "ZCC-1676",
	"6688dd": "ZCC-1677",
	"6688ee": "ZCC-1678",
	"6688ff": "ZCC-1679",
	"669900": "ZCC-1680",
	"669911": "ZCC-1681",
	"669922": "ZCC-1682",
	"669933": "ZCC-1683",
	"669944": "ZCC-1684",
	"669955": "ZCC-1685",
	"669966": "ZCC-1686",
	"669977": "ZCC-1687",
	"669988": "ZCC-1688",
	"669999": "ZCC-1689",
	"6699aa": "ZCC-1690",
	"6699bb": "ZCC-1691",
	"6699cc": "ZCC-1692",
	"6699dd": "ZCC-1693",
	"6699ee": "ZCC-1694",
	"6699ff": "ZCC-1695",
	"66aa00": "ZCC-1696",
	"66aa11": "ZCC-1697",
	"66aa22": "ZCC-1698",
	"66aa33": "ZCC-1699",
	"66aa44": "ZCC-1700",
	"66aa55": "ZCC-1701",
	"66aa66": "ZCC-1702",
	"66aa77": "ZCC-1703",
	"66aa88": "ZCC-1704",
	"66aa99": "ZCC-1705",
	"66aaaa": "ZCC-1706",
	"66aabb": "ZCC-1707",
	"66aacc": "ZCC-1708",
	"66aadd": "ZCC-1709",
	"66aaee": "ZCC-1710",
	"66aaff": "ZCC-1711",
	"66bb00": "ZCC-1712",
	"66bb11": "ZCC-1713",
	"66bb22": "ZCC-1714",
	"66bb33": "ZCC-1715",
	"66bb44": "ZCC-1716",
	"66bb55": "ZCC-1717",
	"66bb66": "ZCC-1718",
	"66bb77": "ZCC-1719",
	"66bb88": "ZCC-1720",
	"66bb99": "ZCC-1721",
	"66bbaa": "ZCC-1722",
	"66bbbb": "ZCC-1723",
	"66bbcc": "ZCC-1724",
	"66bbdd": "ZCC-1725",
	"66bbee": "ZCC-1726",
	"66bbff": "ZCC-1727",
	"66cc00": "ZCC-1728",
	"66cc11": "ZCC-1729",
	"66cc22": "ZCC-1730",
	"66cc33": "ZCC-1731",
	"66cc44": "ZCC-1732",
	"66cc55": "ZCC-1733",
	"66cc66": "ZCC-1734",
	"66cc77": "ZCC-1735",
	"66cc88": "ZCC-1736",
	"66cc99": "ZCC-1737",
	"66ccaa": "ZCC-1738",
	"66ccbb": "ZCC-1739",
	"66cccc": "ZCC-1740",
	"66ccdd": "ZCC-1741",
	"66ccee": "ZCC-1742",
	"66ccff": "ZCC-1743",
	"66dd00": "ZCC-1744",
	"66dd11": "ZCC-1745",
	"66dd22": "ZCC-1746",
	"66dd33": "ZCC-1747",
	"66dd44": "ZCC-1748",
	"66dd55": "ZCC-1749",
	"66dd66": "ZCC-1750",
	"66dd77": "ZCC-1751",
	"66dd88": "ZCC-1752",
	"66dd99": "ZCC-1753",
	"66ddaa": "ZCC-1754",
	"66ddbb": "ZCC-1755",
	"66ddcc": "ZCC-1756",
	"66dddd": "ZCC-1757",
	"66ddee": "ZCC-1758",
	"66ddff": "ZCC-1759",
	"66ee00": "ZCC-1760",
	"66ee11": "ZCC-1761",
	"66ee22": "ZCC-1762",
	"66ee33": "ZCC-1763",
	"66ee44": "ZCC-1764",
	"66ee55": "ZCC-1765",
	"66ee66": "ZCC-1766",
	"66ee77": "ZCC-1767",
	"66ee88": "ZCC-1768",
	"66ee99": "ZCC-1769",
	"66eeaa": "ZCC-1770",
	"66eebb": "ZCC-1771",
	"66eecc": "ZCC-1772",
	"66eedd": "ZCC-1773",
	"66eeee": "ZCC-1774",
	"66eeff": "ZCC-1775",
	"66ff00": "ZCC-1776",
	"66ff11": "ZCC-1777",
	"66ff22": "ZCC-1778",
	"66ff33": "ZCC-1779",
	"66ff44": "ZCC-1780",
	"66ff55": "ZCC-1781",
	"66ff66": "ZCC-1782",
	"66ff77": "ZCC-1783",
	"66ff88": "ZCC-1784",
	"66ff99": "ZCC-1785",
	"66ffaa": "ZCC-1786",
	"66ffbb": "ZCC-1787",
	"66ffcc": "ZCC-1788",
	"66ffdd": "ZCC-1789",
	"66ffee": "ZCC-1790",
	"66ffff": "ZCC-1791",
	"770000": "ZCC-1792",
	"770011": "ZCC-1793",
	"770022": "ZCC-1794",
	"770033": "ZCC-1795",
	"770044": "ZCC-1796",
	"770055": "ZCC-1797",
	"770066": "ZCC-1798",
	"770077": "ZCC-1799",
	"770088": "ZCC-1800",
	"770099": "ZCC-1801",
	"7700aa": "ZCC-1802",
	"7700bb": "ZCC-1803",
	"7700cc": "ZCC-1804",
	"7700dd": "ZCC-1805",
	"7700ee": "ZCC-1806",
	"7700ff": "ZCC-1807",
	"771100": "ZCC-1808",
	"771111": "ZCC-1809",
	"771122": "ZCC-1810",
	"771133": "ZCC-1811",
	"771144": "ZCC-1812",
	"771155": "ZCC-1813",
	"771166": "ZCC-1814",
	"771177": "ZCC-1815",
	"771188": "ZCC-1816",
	"771199": "ZCC-1817",
	"7711aa": "ZCC-1818",
	"7711bb": "ZCC-1819",
	"7711cc": "ZCC-1820",
	"7711dd": "ZCC-1821",
	"7711ee": "ZCC-1822",
	"7711ff": "ZCC-1823",
	"772200": "ZCC-1824",
	"772211": "ZCC-1825",
	"772222": "ZCC-1826",
	"772233": "ZCC-1827",
	"772244": "ZCC-1828",
	"772255": "ZCC-1829",
	"772266": "ZCC-1830",
	"772277": "ZCC-1831",
	"772288": "ZCC-1832",
	"772299": "ZCC-1833",
	"7722aa": "ZCC-1834",
	"7722bb": "ZCC-1835",
	"7722cc": "ZCC-1836",
	"7722dd": "ZCC-1837",
	"7722ee": "ZCC-1838",
	"7722ff": "ZCC-1839",
	"773300": "ZCC-1840",
	"773311": "ZCC-1841",
	"773322": "ZCC-1842",
	"773333": "ZCC-1843",
	"773344": "ZCC-1844",
	"773355": "ZCC-1845",
	"773366": "ZCC-1846",
	"773377": "ZCC-1847",
	"773388": "ZCC-1848",
	"773399": "ZCC-1849",
	"7733aa": "ZCC-1850",
	"7733bb": "ZCC-1851",
	"7733cc": "ZCC-1852",
	"7733dd": "ZCC-1853",
	"7733ee": "ZCC-1854",
	"7733ff": "ZCC-1855",
	"774400": "ZCC-1856",
	"774411": "ZCC-1857",
	"774422": "ZCC-1858",
	"774433": "ZCC-1859",
	"774444": "ZCC-1860",
	"774455": "ZCC-1861",
	"774466": "ZCC-1862",
	"774477": "ZCC-1863",
	"774488": "ZCC-1864",
	"774499": "ZCC-1865",
	"7744aa": "ZCC-1866",
	"7744bb": "ZCC-1867",
	"7744cc": "ZCC-1868",
	"7744dd": "ZCC-1869",
	"7744ee": "ZCC-1870",
	"7744ff": "ZCC-1871",
	"775500": "ZCC-1872",
	"775511": "ZCC-1873",
	"775522": "ZCC-1874",
	"775533": "ZCC-1875",
	"775544": "ZCC-1876",
	"775555": "ZCC-1877",
	"775566": "ZCC-1878",
	"775577": "ZCC-1879",
	"775588": "ZCC-1880",
	"775599": "ZCC-1881",
	"7755aa": "ZCC-1882",
	"7755bb": "ZCC-1883",
	"7755cc": "ZCC-1884",
	"7755dd": "ZCC-1885",
	"7755ee": "ZCC-1886",
	"7755ff": "ZCC-1887",
	"776600": "ZCC-1888",
	"776611": "ZCC-1889",
	"776622": "ZCC-1890",
	"776633": "ZCC-1891",
	"776644": "ZCC-1892",
	"776655": "ZCC-1893",
	"776666": "ZCC-1894",
	"776677": "ZCC-1895",
	"776688": "ZCC-1896",
	"776699": "ZCC-1897",
	"7766aa": "ZCC-1898",
	"7766bb": "ZCC-1899",
	"7766cc": "ZCC-1900",
	"7766dd": "ZCC-1901",
	"7766ee": "ZCC-1902",
	"7766ff": "ZCC-1903",
	"777700": "ZCC-1904",
	"777711": "ZCC-1905",
	"777722": "ZCC-1906",
	"777733": "ZCC-1907",
	"777744": "ZCC-1908",
	"777755": "ZCC-1909",
	"777766": "ZCC-1910",
	"777777": "ZCC-1911",
	"777788": "ZCC-1912",
	"777799": "ZCC-1913",
	"7777aa": "ZCC-1914",
	"7777bb": "ZCC-1915",
	"7777cc": "ZCC-1916",
	"7777dd": "ZCC-1917",
	"7777ee": "ZCC-1918",
	"7777ff": "ZCC-1919",
	"778800": "ZCC-1920",
	"778811": "ZCC-1921",
	"778822": "ZCC-1922",
	"778833": "ZCC-1923",
	"778844": "ZCC-1924",
	"778855": "ZCC-1925",
	"778866": "ZCC-1926",
	"778877": "ZCC-1927",
	"778888": "ZCC-1928",
	"778899": "ZCC-1929",
	"7788aa": "ZCC-1930",
	"7788bb": "ZCC-1931",
	"7788cc": "ZCC-1932",
	"7788dd": "ZCC-1933",
	"7788ee": "ZCC-1934",
	"7788ff": "ZCC-1935",
	"779900": "ZCC-1936",
	"779911": "ZCC-1937",
	"779922": "ZCC-1938",
	"779933": "ZCC-1939",
	"779944": "ZCC-1940",
	"779955": "ZCC-1941",
	"779966": "ZCC-1942",
	"779977": "ZCC-1943",
	"779988": "ZCC-1944",
	"779999": "ZCC-1945",
	"7799aa": "ZCC-1946",
	"7799bb": "ZCC-1947",
	"7799cc": "ZCC-1948",
	"7799dd": "ZCC-1949",
	"7799ee": "ZCC-1950",
	"7799ff": "ZCC-1951",
	"77aa00": "ZCC-1952",
	"77aa11": "ZCC-1953",
	"77aa22": "ZCC-1954",
	"77aa33": "ZCC-1955",
	"77aa44": "ZCC-1956",
	"77aa55": "ZCC-1957",
	"77aa66": "ZCC-1958",
	"77aa77": "ZCC-1959",
	"77aa88": "ZCC-1960",
	"77aa99": "ZCC-1961",
	"77aaaa": "ZCC-1962",
	"77aabb": "ZCC-1963",
	"77aacc": "ZCC-1964",
	"77aadd": "ZCC-1965",
	"77aaee": "ZCC-1966",
	"77aaff": "ZCC-1967",
	"77bb00": "ZCC-1968",
	"77bb11": "ZCC-1969",
	"77bb22": "ZCC-1970",
	"77bb33": "ZCC-1971",
	"77bb44": "ZCC-1972",
	"77bb55": "ZCC-1973",
	"77bb66": "ZCC-1974",
	"77bb77": "ZCC-1975",
	"77bb88": "ZCC-1976",
	"77bb99": "ZCC-1977",
	"77bbaa": "ZCC-1978",
	"77bbbb": "ZCC-1979",
	"77bbcc": "ZCC-1980",
	"77bbdd": "ZCC-1981",
	"77bbee": "ZCC-1982",
	"77bbff": "ZCC-1983",
	"77cc00": "ZCC-1984",
	"77cc11": "ZCC-1985",
	"77cc22": "ZCC-1986",
	"77cc33": "ZCC-1987",
	"77cc44": "ZCC-1988",
	"77cc55": "ZCC-1989",
	"77cc66": "ZCC-1990",
	"77cc77": "ZCC-1991",
	"77cc88": "ZCC-1992",
	"77cc99": "ZCC-1993",
	"77ccaa": "ZCC-1994",
	"77ccbb": "ZCC-1995",
	"77cccc": "ZCC-1996",
	"77ccdd": "ZCC-1997",
	"77ccee": "ZCC-1998",
	"77ccff": "ZCC-1999",
	"77dd00": "ZCC-2000",
	"77dd11": "ZCC-2001",
	"77dd22": "ZCC-2002",
	"77dd33": "ZCC-2003",
	"77dd44": "ZCC-2004",
	"77dd55": "ZCC-2005",
	"77dd66": "ZCC-2006",
	"77dd77": "ZCC-2007",
	"77dd88": "ZCC-2008",
	"77dd99": "ZCC-2009",
	"77ddaa": "ZCC-2010",
	"77ddbb": "ZCC-2011",
	"77ddcc": "ZCC-2012",
	"77dddd": "ZCC-2013",
	"77ddee": "ZCC-2014",
	"77ddff": "ZCC-2015",
	"77ee00": "ZCC-2016",
	"77ee11": "ZCC-2017",
	"77ee22": "ZCC-2018",
	"77ee33": "ZCC-2019",
	"77ee44": "ZCC-2020",
	"77ee55": "ZCC-2021",
	"77ee66": "ZCC-2022",
	"77ee77": "ZCC-2023",
	"77ee88": "ZCC-2024",
	"77ee99": "ZCC-2025",
	"77eeaa": "ZCC-2026",
	"77eebb": "ZCC-2027",
	"77eecc": "ZCC-2028",
	"77eedd": "ZCC-2029",
	"77eeee": "ZCC-2030",
	"77eeff": "ZCC-2031",
	"77ff00": "ZCC-2032",
	"77ff11": "ZCC-2033",
	"77ff22": "ZCC-2034",
	"77ff33": "ZCC-2035",
	"77ff44": "ZCC-2036",
	"77ff55": "ZCC-2037",
	"77ff66": "ZCC-2038",
	"77ff77": "ZCC-2039",
	"77ff88": "ZCC-2040",
	"77ff99": "ZCC-2041",
	"77ffaa": "ZCC-2042",
	"77ffbb": "ZCC-2043",
	"77ffcc": "ZCC-2044",
	"77ffdd": "ZCC-2045",
	"77ffee": "ZCC-2046",
	"77ffff": "ZCC-2047",
	"880000": "ZCC-2048",
	"880011": "ZCC-2049",
	"880022": "ZCC-2050",
	"880033": "ZCC-2051",
	"880044": "ZCC-2052",
	"880055": "ZCC-2053",
	"880066": "ZCC-2054",
	"880077": "ZCC-2055",
	"880088": "ZCC-2056",
	"880099": "ZCC-2057",
	"8800aa": "ZCC-2058",
	"8800bb": "ZCC-2059",
	"8800cc": "ZCC-2060",
	"8800dd": "ZCC-2061",
	"8800ee": "ZCC-2062",
	"8800ff": "ZCC-2063",
	"881100": "ZCC-2064",
	"881111": "ZCC-2065",
	"881122": "ZCC-2066",
	"881133": "ZCC-2067",
	"881144": "ZCC-2068",
	"881155": "ZCC-2069",
	"881166": "ZCC-2070",
	"881177": "ZCC-2071",
	"881188": "ZCC-2072",
	"881199": "ZCC-2073",
	"8811aa": "ZCC-2074",
	"8811bb": "ZCC-2075",
	"8811cc": "ZCC-2076",
	"8811dd": "ZCC-2077",
	"8811ee": "ZCC-2078",
	"8811ff": "ZCC-2079",
	"882200": "ZCC-2080",
	"882211": "ZCC-2081",
	"882222": "ZCC-2082",
	"882233": "ZCC-2083",
	"882244": "ZCC-2084",
	"882255": "ZCC-2085",
	"882266": "ZCC-2086",
	"882277": "ZCC-2087",
	"882288": "ZCC-2088",
	"882299": "ZCC-2089",
	"8822aa": "ZCC-2090",
	"8822bb": "ZCC-2091",
	"8822cc": "ZCC-2092",
	"8822dd": "ZCC-2093",
	"8822ee": "ZCC-2094",
	"8822ff": "ZCC-2095",
	"883300": "ZCC-2096",
	"883311": "ZCC-2097",
	"883322": "ZCC-2098",
	"883333": "ZCC-2099",
	"883344": "ZCC-2100",
	"883355": "ZCC-2101",
	"883366": "ZCC-2102",
	"883377": "ZCC-2103",
	"883388": "ZCC-2104",
	"883399": "ZCC-2105",
	"8833aa": "ZCC-2106",
	"8833bb": "ZCC-2107",
	"8833cc": "ZCC-2108",
	"8833dd": "ZCC-2109",
	"8833ee": "ZCC-2110",
	"8833ff": "ZCC-2111",
	"884400": "ZCC-2112",
	"884411": "ZCC-2113",
	"884422": "ZCC-2114",
	"884433": "ZCC-2115",
	"884444": "ZCC-2116",
	"884455": "ZCC-2117",
	"884466": "ZCC-2118",
	"884477": "ZCC-2119",
	"884488": "ZCC-2120",
	"884499": "ZCC-2121",
	"8844aa": "ZCC-2122",
	"8844bb": "ZCC-2123",
	"8844cc": "ZCC-2124",
	"8844dd": "ZCC-2125",
	"8844ee": "ZCC-2126",
	"8844ff": "ZCC-2127",
	"885500": "ZCC-2128",
	"885511": "ZCC-2129",
	"885522": "ZCC-2130",
	"885533": "ZCC-2131",
	"885544": "ZCC-2132",
	"885555": "ZCC-2133",
	"885566": "ZCC-2134",
	"885577": "ZCC-2135",
	"885588": "ZCC-2136",
	"885599": "ZCC-2137",
	"8855aa": "ZCC-2138",
	"8855bb": "ZCC-2139",
	"8855cc": "ZCC-2140",
	"8855dd": "ZCC-2141",
	"8855ee": "ZCC-2142",
	"8855ff": "ZCC-2143",
	"886600": "ZCC-2144",
	"886611": "ZCC-2145",
	"886622": "ZCC-2146",
	"886633": "ZCC-2147",
	"886644": "ZCC-2148",
	"886655": "ZCC-2149",
	"886666": "ZCC-2150",
	"886677": "ZCC-2151",
	"886688": "ZCC-2152",
	"886699": "ZCC-2153",
	"8866aa": "ZCC-2154",
	"8866bb": "ZCC-2155",
	"8866cc": "ZCC-2156",
	"8866dd": "ZCC-2157",
	"8866ee": "ZCC-2158",
	"8866ff": "ZCC-2159",
	"887700": "ZCC-2160",
	"887711": "ZCC-2161",
	"887722": "ZCC-2162",
	"887733": "ZCC-2163",
	"887744": "ZCC-2164",
	"887755": "ZCC-2165",
	"887766": "ZCC-2166",
	"887777": "ZCC-2167",
	"887788": "ZCC-2168",
	"887799": "ZCC-2169",
	"8877aa": "ZCC-2170",
	"8877bb": "ZCC-2171",
	"8877cc": "ZCC-2172",
	"8877dd": "ZCC-2173",
	"8877ee": "ZCC-2174",
	"8877ff": "ZCC-2175",
	"888800": "ZCC-2176",
	"888811": "ZCC-2177",
	"888822": "ZCC-2178",
	"888833": "ZCC-2179",
	"888844": "ZCC-2180",
	"888855": "ZCC-2181",
	"888866": "ZCC-2182",
	"888877": "ZCC-2183",
	"888888": "ZCC-2184",
	"888899": "ZCC-2185",
	"8888aa": "ZCC-2186",
	"8888bb": "ZCC-2187",
	"8888cc": "ZCC-2188",
	"8888dd": "ZCC-2189",
	"8888ee": "ZCC-2190",
	"8888ff": "ZCC-2191",
	"889900": "ZCC-2192",
	"889911": "ZCC-2193",
	"889922": "ZCC-2194",
	"889933": "ZCC-2195",
	"889944": "ZCC-2196",
	"889955": "ZCC-2197",
	"889966": "ZCC-2198",
	"889977": "ZCC-2199",
	"889988": "ZCC-2200",
	"889999": "ZCC-2201",
	"8899aa": "ZCC-2202",
	"8899bb": "ZCC-2203",
	"8899cc": "ZCC-2204",
	"8899dd": "ZCC-2205",
	"8899ee": "ZCC-2206",
	"8899ff": "ZCC-2207",
	"88aa00": "ZCC-2208",
	"88aa11": "ZCC-2209",
	"88aa22": "ZCC-2210",
	"88aa33": "ZCC-2211",
	"88aa44": "ZCC-2212",
	"88aa55": "ZCC-2213",
	"88aa66": "ZCC-2214",
	"88aa77": "ZCC-2215",
	"88aa88": "ZCC-2216",
	"88aa99": "ZCC-2217",
	"88aaaa": "ZCC-2218",
	"88aabb": "ZCC-2219",
	"88aacc": "ZCC-2220",
	"88aadd": "ZCC-2221",
	"88aaee": "ZCC-2222",
	"88aaff": "ZCC-2223",
	"88bb00": "ZCC-2224",
	"88bb11": "ZCC-2225",
	"88bb22": "ZCC-2226",
	"88bb33": "ZCC-2227",
	"88bb44": "ZCC-2228",
	"88bb55": "ZCC-2229",
	"88bb66": "ZCC-2230",
	"88bb77": "ZCC-2231",
	"88bb88": "ZCC-2232",
	"88bb99": "ZCC-2233",
	"88bbaa": "ZCC-2234",
	"88bbbb": "ZCC-2235",
	"88bbcc": "ZCC-2236",
	"88bbdd": "ZCC-2237",
	"88bbee": "ZCC-2238",
	"88bbff": "ZCC-2239",
	"88cc00": "ZCC-2240",
	"88cc11": "ZCC-2241",
	"88cc22": "ZCC-2242",
	"88cc33": "ZCC-2243",
	"88cc44": "ZCC-2244",
	"88cc55": "ZCC-2245",
	"88cc66": "ZCC-2246",
	"88cc77": "ZCC-2247",
	"88cc88": "ZCC-2248",
	"88cc99": "ZCC-2249",
	"88ccaa": "ZCC-2250",
	"88ccbb": "ZCC-2251",
	"88cccc": "ZCC-2252",
	"88ccdd": "ZCC-2253",
	"88ccee": "ZCC-2254",
	"88ccff": "ZCC-2255",
	"88dd00": "ZCC-2256",
	"88dd11": "ZCC-2257",
	"88dd22": "ZCC-2258",
	"88dd33": "ZCC-2259",
	"88dd44": "ZCC-2260",
	"88dd55": "ZCC-2261",
	"88dd66": "ZCC-2262",
	"88dd77": "ZCC-2263",
	"88dd88": "ZCC-2264",
	"88dd99": "ZCC-2265",
	"88ddaa": "ZCC-2266",
	"88ddbb": "ZCC-2267",
	"88ddcc": "ZCC-2268",
	"88dddd": "ZCC-2269",
	"88ddee": "ZCC-2270",
	"88ddff": "ZCC-2271",
	"88ee00": "ZCC-2272",
	"88ee11": "ZCC-2273",
	"88ee22": "ZCC-2274",
	"88ee33": "ZCC-2275",
	"88ee44": "ZCC-2276",
	"88ee55": "ZCC-2277",
	"88ee66": "ZCC-2278",
	"88ee77": "ZCC-2279",
	"88ee88": "ZCC-2280",
	"88ee99": "ZCC-2281",
	"88eeaa": "ZCC-2282",
	"88eebb": "ZCC-2283",
	"88eecc": "ZCC-2284",
	"88eedd": "ZCC-2285",
	"88eeee": "ZCC-2286",
	"88eeff": "ZCC-2287",
	"88ff00": "ZCC-2288",
	"88ff11": "ZCC-2289",
	"88ff22": "ZCC-2290",
	"88ff33": "ZCC-2291",
	"88ff44": "ZCC-2292",
	"88ff55": "ZCC-2293",
	"88ff66": "ZCC-2294",
	"88ff77": "ZCC-2295",
	"88ff88": "ZCC-2296",
	"88ff99": "ZCC-2297",
	"88ffaa": "ZCC-2298",
	"88ffbb": "ZCC-2299",
	"88ffcc": "ZCC-2300",
	"88ffdd": "ZCC-2301",
	"88ffee": "ZCC-2302",
	"88ffff": "ZCC-2303",
	"990000": "ZCC-2304",
	"990011": "ZCC-2305",
	"990022": "ZCC-2306",
	"990033": "ZCC-2307",
	"990044": "ZCC-2308",
	"990055": "ZCC-2309",
	"990066": "ZCC-2310",
	"990077": "ZCC-2311",
	"990088": "ZCC-2312",
	"990099": "ZCC-2313",
	"9900aa": "ZCC-2314",
	"9900bb": "ZCC-2315",
	"9900cc": "ZCC-2316",
	"9900dd": "ZCC-2317",
	"9900ee": "ZCC-2318",
	"9900ff": "ZCC-2319",
	"991100": "ZCC-2320",
	"991111": "ZCC-2321",
	"991122": "ZCC-2322",
	"991133": "ZCC-2323",
	"991144": "ZCC-2324",
	"991155": "ZCC-2325",
	"991166": "ZCC-2326",
	"991177": "ZCC-2327",
	"991188": "ZCC-2328",
	"991199": "ZCC-2329",
	"9911aa": "ZCC-2330",
	"9911bb": "ZCC-2331",
	"9911cc": "ZCC-2332",
	"9911dd": "ZCC-2333",
	"9911ee": "ZCC-2334",
	"9911ff": "ZCC-2335",
	"009922": "ZCC-2336",
	"992200": "ZCC-2337",
	"992211": "ZCC-2338",
	"992222": "ZCC-2339",
	"992233": "ZCC-2340",
	"992244": "ZCC-2341",
	"992255": "ZCC-2342",
	"992266": "ZCC-2343",
	"992277": "ZCC-2344",
	"992288": "ZCC-2345",
	"992299": "ZCC-2346",
	"9922aa": "ZCC-2347",
	"9922bb": "ZCC-2348",
	"9922cc": "ZCC-2349",
	"9922dd": "ZCC-2350",
	"9922ee": "ZCC-2351",
	"9922ff": "ZCC-2352",
	"993300": "ZCC-2353",
	"993311": "ZCC-2354",
	"993322": "ZCC-2355",
	"993333": "ZCC-2356",
	"993344": "ZCC-2357",
	"993355": "ZCC-2358",
	"993366": "ZCC-2359",
	"993377": "ZCC-2360",
	"993388": "ZCC-2361",
	"993399": "ZCC-2362",
	"9933aa": "ZCC-2363",
	"9933bb": "ZCC-2364",
	"9933cc": "ZCC-2365",
	"9933dd": "ZCC-2366",
	"9933ee": "ZCC-2367",
	"9933ff": "ZCC-2368",
	"994400": "ZCC-2369",
	"994411": "ZCC-2370",
	"994422": "ZCC-2371",
	"994433": "ZCC-2372",
	"994444": "ZCC-2373",
	"994455": "ZCC-2374",
	"994466": "ZCC-2375",
	"994477": "ZCC-2376",
	"994488": "ZCC-2377",
	"994499": "ZCC-2378",
	"9944aa": "ZCC-2379",
	"9944bb": "ZCC-2380",
	"9944cc": "ZCC-2381",
	"9944dd": "ZCC-2382",
	"9944ee": "ZCC-2383",
	"9944ff": "ZCC-2384",
	"995500": "ZCC-2385",
	"995511": "ZCC-2386",
	"995522": "ZCC-2387",
	"995533": "ZCC-2388",
	"995544": "ZCC-2389",
	"995555": "ZCC-2390",
	"995566": "ZCC-2391",
	"995577": "ZCC-2392",
	"995588": "ZCC-2393",
	"995599": "ZCC-2394",
	"9955aa": "ZCC-2395",
	"9955bb": "ZCC-2396",
	"9955cc": "ZCC-2397",
	"9955dd": "ZCC-2398",
	"9955ee": "ZCC-2399",
	"9955ff": "ZCC-2400",
	"996600": "ZCC-2401",
	"996611": "ZCC-2402",
	"996622": "ZCC-2403",
	"996633": "ZCC-2404",
	"996644": "ZCC-2405",
	"996655": "ZCC-2406",
	"996666": "ZCC-2407",
	"996677": "ZCC-2408",
	"996688": "ZCC-2409",
	"996699": "ZCC-2410",
	"9966aa": "ZCC-2411",
	"9966bb": "ZCC-2412",
	"9966cc": "ZCC-2413",
	"9966dd": "ZCC-2414",
	"9966ee": "ZCC-2415",
	"9966ff": "ZCC-2416",
	"997700": "ZCC-2417",
	"997711": "ZCC-2418",
	"997722": "ZCC-2419",
	"997733": "ZCC-2420",
	"997744": "ZCC-2421",
	"997755": "ZCC-2422",
	"997766": "ZCC-2423",
	"997777": "ZCC-2424",
	"997788": "ZCC-2425",
	"997799": "ZCC-2426",
	"9977aa": "ZCC-2427",
	"9977bb": "ZCC-2428",
	"9977cc": "ZCC-2429",
	"9977dd": "ZCC-2430",
	"9977ee": "ZCC-2431",
	"9977ff": "ZCC-2432",
	"998800": "ZCC-2433",
	"998811": "ZCC-2434",
	"998822": "ZCC-2435",
	"998833": "ZCC-2436",
	"998844": "ZCC-2437",
	"998855": "ZCC-2438",
	"998866": "ZCC-2439",
	"998877": "ZCC-2440",
	"998888": "ZCC-2441",
	"998899": "ZCC-2442",
	"9988aa": "ZCC-2443",
	"9988bb": "ZCC-2444",
	"9988cc": "ZCC-2445",
	"9988dd": "ZCC-2446",
	"9988ee": "ZCC-2447",
	"9988ff": "ZCC-2448",
	"999900": "ZCC-2449",
	"999911": "ZCC-2450",
	"999922": "ZCC-2451",
	"999933": "ZCC-2452",
	"999944": "ZCC-2453",
	"999955": "ZCC-2454",
	"999966": "ZCC-2455",
	"999977": "ZCC-2456",
	"999988": "ZCC-2457",
	"999999": "ZCC-2458",
	"9999aa": "ZCC-2459",
	"9999bb": "ZCC-2460",
	"9999cc": "ZCC-2461",
	"9999dd": "ZCC-2462",
	"9999ee": "ZCC-2463",
	"9999ff": "ZCC-2464",
	"99aa00": "ZCC-2465",
	"99aa11": "ZCC-2466",
	"99aa22": "ZCC-2467",
	"99aa33": "ZCC-2468",
	"99aa44": "ZCC-2469",
	"99aa55": "ZCC-2470",
	"99aa66": "ZCC-2471",
	"99aa77": "ZCC-2472",
	"99aa88": "ZCC-2473",
	"99aa99": "ZCC-2474",
	"99aaaa": "ZCC-2475",
	"99aabb": "ZCC-2476",
	"99aacc": "ZCC-2477",
	"99aadd": "ZCC-2478",
	"99aaee": "ZCC-2479",
	"99aaff": "ZCC-2480",
	"99bb00": "ZCC-2481",
	"99bb11": "ZCC-2482",
	"99bb22": "ZCC-2483",
	"99bb33": "ZCC-2484",
	"99bb44": "ZCC-2485",
	"99bb55": "ZCC-2486",
	"99bb66": "ZCC-2487",
	"99bb77": "ZCC-2488",
	"99bb88": "ZCC-2489",
	"99bb99": "ZCC-2490",
	"99bbaa": "ZCC-2491",
	"99bbbb": "ZCC-2492",
	"99bbcc": "ZCC-2493",
	"99bbdd": "ZCC-2494",
	"99bbee": "ZCC-2495",
	"99bbff": "ZCC-2496",
	"99cc00": "ZCC-2497",
	"99cc11": "ZCC-2498",
	"99cc22": "ZCC-2499",
	"99cc33": "ZCC-2500",
	"99cc44": "ZCC-2501",
	"99cc55": "ZCC-2502",
	"99cc66": "ZCC-2503",
	"99cc77": "ZCC-2504",
	"99cc88": "ZCC-2505",
	"99cc99": "ZCC-2506",
	"99ccaa": "ZCC-2507",
	"99ccbb": "ZCC-2508",
	"99cccc": "ZCC-2509",
	"99ccdd": "ZCC-2510",
	"99ccee": "ZCC-2511",
	"99ccff": "ZCC-2512",
	"99dd00": "ZCC-2513",
	"99dd11": "ZCC-2514",
	"99dd22": "ZCC-2515",
	"99dd33": "ZCC-2516",
	"99dd44": "ZCC-2517",
	"99dd55": "ZCC-2518",
	"99dd66": "ZCC-2519",
	"99dd77": "ZCC-2520",
	"99dd88": "ZCC-2521",
	"99dd99": "ZCC-2522",
	"99ddaa": "ZCC-2523",
	"99ddbb": "ZCC-2524",
	"99ddcc": "ZCC-2525",
	"99dddd": "ZCC-2526",
	"99ddee": "ZCC-2527",
	"99ddff": "ZCC-2528",
	"99ee00": "ZCC-2529",
	"99ee11": "ZCC-2530",
	"99ee22": "ZCC-2531",
	"99ee33": "ZCC-2532",
	"99ee44": "ZCC-2533",
	"99ee55": "ZCC-2534",
	"99ee66": "ZCC-2535",
	"99ee77": "ZCC-2536",
	"99ee88": "ZCC-2537",
	"99ee99": "ZCC-2538",
	"99eeaa": "ZCC-2539",
	"99eebb": "ZCC-2540",
	"99eecc": "ZCC-2541",
	"99eedd": "ZCC-2542",
	"99eeee": "ZCC-2543",
	"99eeff": "ZCC-2544",
	"99ff00": "ZCC-2545",
	"99ff11": "ZCC-2546",
	"99ff22": "ZCC-2547",
	"99ff33": "ZCC-2548",
	"99ff44": "ZCC-2549",
	"99ff55": "ZCC-2550",
	"99ff66": "ZCC-2551",
	"99ff77": "ZCC-2552",
	"99ff88": "ZCC-2553",
	"99ff99": "ZCC-2554",
	"99ffaa": "ZCC-2555",
	"99ffbb": "ZCC-2556",
	"99ffcc": "ZCC-2557",
	"99ffdd": "ZCC-2558",
	"99ffee": "ZCC-2559",
	"99ffff": "ZCC-2560",
	"aa0000": "ZCC-2561",
	"aa0011": "ZCC-2562",
	"aa0022": "ZCC-2563",
	"aa0033": "ZCC-2564",
	"aa0044": "ZCC-2565",
	"aa0055": "ZCC-2566",
	"aa0066": "ZCC-2567",
	"aa0077": "ZCC-2568",
	"aa0088": "ZCC-2569",
	"aa0099": "ZCC-2570",
	"aa00aa": "ZCC-2571",
	"aa00bb": "ZCC-2572",
	"aa00cc": "ZCC-2573",
	"aa00dd": "ZCC-2574",
	"aa00ee": "ZCC-2575",
	"aa00ff": "ZCC-2576",
	"aa1100": "ZCC-2577",
	"aa1111": "ZCC-2578",
	"aa1122": "ZCC-2579",
	"aa1133": "ZCC-2580",
	"aa1144": "ZCC-2581",
	"aa1155": "ZCC-2582",
	"aa1166": "ZCC-2583",
	"aa1177": "ZCC-2584",
	"aa1188": "ZCC-2585",
	"aa1199": "ZCC-2586",
	"aa11aa": "ZCC-2587",
	"aa11bb": "ZCC-2588",
	"aa11cc": "ZCC-2589",
	"aa11dd": "ZCC-2590",
	"aa11ee": "ZCC-2591",
	"aa11ff": "ZCC-2592",
	"aa2200": "ZCC-2593",
	"aa2211": "ZCC-2594",
	"aa2222": "ZCC-2595",
	"aa2233": "ZCC-2596",
	"aa2244": "ZCC-2597",
	"aa2255": "ZCC-2598",
	"aa2266": "ZCC-2599",
	"aa2277": "ZCC-2600",
	"aa2288": "ZCC-2601",
	"aa2299": "ZCC-2602",
	"aa22aa": "ZCC-2603",
	"aa22bb": "ZCC-2604",
	"aa22cc": "ZCC-2605",
	"aa22dd": "ZCC-2606",
	"aa22ee": "ZCC-2607",
	"aa22ff": "ZCC-2608",
	"aa3300": "ZCC-2609",
	"aa3311": "ZCC-2610",
	"aa3322": "ZCC-2611",
	"aa3333": "ZCC-2612",
	"aa3344": "ZCC-2613",
	"aa3355": "ZCC-2614",
	"aa3366": "ZCC-2615",
	"aa3377": "ZCC-2616",
	"aa3388": "ZCC-2617",
	"aa3399": "ZCC-2618",
	"aa33aa": "ZCC-2619",
	"aa33bb": "ZCC-2620",
	"aa33cc": "ZCC-2621",
	"aa33dd": "ZCC-2622",
	"aa33ee": "ZCC-2623",
	"aa33ff": "ZCC-2624",
	"aa4400": "ZCC-2625",
	"aa4411": "ZCC-2626",
	"aa4422": "ZCC-2627",
	"aa4433": "ZCC-2628",
	"aa4444": "ZCC-2629",
	"aa4455": "ZCC-2630",
	"aa4466": "ZCC-2631",
	"aa4477": "ZCC-2632",
	"aa4488": "ZCC-2633",
	"aa4499": "ZCC-2634",
	"aa44aa": "ZCC-2635",
	"aa44bb": "ZCC-2636",
	"aa44cc": "ZCC-2637",
	"aa44dd": "ZCC-2638",
	"aa44ee": "ZCC-2639",
	"aa44ff": "ZCC-2640",
	"aa5500": "ZCC-2641",
	"aa5511": "ZCC-2642",
	"aa5522": "ZCC-2643",
	"aa5533": "ZCC-2644",
	"aa5544": "ZCC-2645",
	"aa5555": "ZCC-2646",
	"aa5566": "ZCC-2647",
	"aa5577": "ZCC-2648",
	"aa5588": "ZCC-2649",
	"aa5599": "ZCC-2650",
	"aa55aa": "ZCC-2651",
	"aa55bb": "ZCC-2652",
	"aa55cc": "ZCC-2653",
	"aa55dd": "ZCC-2654",
	"aa55ee": "ZCC-2655",
	"aa55ff": "ZCC-2656",
	"aa6600": "ZCC-2657",
	"aa6611": "ZCC-2658",
	"aa6622": "ZCC-2659",
	"aa6633": "ZCC-2660",
	"aa6644": "ZCC-2661",
	"aa6655": "ZCC-2662",
	"aa6666": "ZCC-2663",
	"aa6677": "ZCC-2664",
	"aa6688": "ZCC-2665",
	"aa6699": "ZCC-2666",
	"aa66aa": "ZCC-2667",
	"aa66bb": "ZCC-2668",
	"aa66cc": "ZCC-2669",
	"aa66dd": "ZCC-2670",
	"aa66ee": "ZCC-2671",
	"aa66ff": "ZCC-2672",
	"aa7700": "ZCC-2673",
	"aa7711": "ZCC-2674",
	"aa7722": "ZCC-2675",
	"aa7733": "ZCC-2676",
	"aa7744": "ZCC-2677",
	"aa7755": "ZCC-2678",
	"aa7766": "ZCC-2679",
	"aa7777": "ZCC-2680",
	"aa7788": "ZCC-2681",
	"aa7799": "ZCC-2682",
	"aa77aa": "ZCC-2683",
	"aa77bb": "ZCC-2684",
	"aa77cc": "ZCC-2685",
	"aa77dd": "ZCC-2686",
	"aa77ee": "ZCC-2687",
	"aa77ff": "ZCC-2688",
	"aa8800": "ZCC-2689",
	"aa8811": "ZCC-2690",
	"aa8822": "ZCC-2691",
	"aa8833": "ZCC-2692",
	"aa8844": "ZCC-2693",
	"aa8855": "ZCC-2694",
	"aa8866": "ZCC-2695",
	"aa8877": "ZCC-2696",
	"aa8888": "ZCC-2697",
	"aa8899": "ZCC-2698",
	"aa88aa": "ZCC-2699",
	"aa88bb": "ZCC-2700",
	"aa88cc": "ZCC-2701",
	"aa88dd": "ZCC-2702",
	"aa88ee": "ZCC-2703",
	"aa88ff": "ZCC-2704",
	"aa9900": "ZCC-2705",
	"aa9911": "ZCC-2706",
	"aa9922": "ZCC-2707",
	"aa9933": "ZCC-2708",
	"aa9944": "ZCC-2709",
	"aa9955": "ZCC-2710",
	"aa9966": "ZCC-2711",
	"aa9977": "ZCC-2712",
	"aa9988": "ZCC-2713",
	"aa9999": "ZCC-2714",
	"aa99aa": "ZCC-2715",
	"aa99bb": "ZCC-2716",
	"aa99cc": "ZCC-2717",
	"aa99dd": "ZCC-2718",
	"aa99ee": "ZCC-2719",
	"aa99ff": "ZCC-2720",
	"aaaa00": "ZCC-2721",
	"aaaa11": "ZCC-2722",
	"aaaa22": "ZCC-2723",
	"aaaa33": "ZCC-2724",
	"aaaa44": "ZCC-2725",
	"aaaa55": "ZCC-2726",
	"aaaa66": "ZCC-2727",
	"aaaa77": "ZCC-2728",
	"aaaa88": "ZCC-2729",
	"aaaa99": "ZCC-2730",
	"aaaaaa": "ZCC-2731",
	"aaaabb": "ZCC-2732",
	"aaaacc": "ZCC-2733",
	"aaaadd": "ZCC-2734",
	"aaaaee": "ZCC-2735",
	"aaaaff": "ZCC-2736",
	"aabb00": "ZCC-2737",
	"aabb11": "ZCC-2738",
	"aabb22": "ZCC-2739",
	"aabb33": "ZCC-2740",
	"aabb44": "ZCC-2741",
	"aabb55": "ZCC-2742",
	"aabb66": "ZCC-2743",
	"aabb77": "ZCC-2744",
	"aabb88": "ZCC-2745",
	"aabb99": "ZCC-2746",
	"aabbaa": "ZCC-2747",
	"aabbbb": "ZCC-2748",
	"aabbcc": "ZCC-2749",
	"aabbdd": "ZCC-2750",
	"aabbee": "ZCC-2751",
	"aabbff": "ZCC-2752",
	"aacc00": "ZCC-2753",
	"aacc11": "ZCC-2754",
	"aacc22": "ZCC-2755",
	"aacc33": "ZCC-2756",
	"aacc44": "ZCC-2757",
	"aacc55": "ZCC-2758",
	"aacc66": "ZCC-2759",
	"aacc77": "ZCC-2760",
	"aacc88": "ZCC-2761",
	"aacc99": "ZCC-2762",
	"aaccaa": "ZCC-2763",
	"aaccbb": "ZCC-2764",
	"aacccc": "ZCC-2765",
	"aaccdd": "ZCC-2766",
	"aaccee": "ZCC-2767",
	"aaccff": "ZCC-2768",
	"aadd00": "ZCC-2769",
	"aadd11": "ZCC-2770",
	"aadd22": "ZCC-2771",
	"aadd33": "ZCC-2772",
	"aadd44": "ZCC-2773",
	"aadd55": "ZCC-2774",
	"aadd66": "ZCC-2775",
	"aadd77": "ZCC-2776",
	"aadd88": "ZCC-2777",
	"aadd99": "ZCC-2778",
	"aaddaa": "ZCC-2779",
	"aaddbb": "ZCC-2780",
	"aaddcc": "ZCC-2781",
	"aadddd": "ZCC-2782",
	"aaddee": "ZCC-2783",
	"aaddff": "ZCC-2784",
	"aaee00": "ZCC-2785",
	"aaee11": "ZCC-2786",
	"aaee22": "ZCC-2787",
	"aaee33": "ZCC-2788",
	"aaee44": "ZCC-2789",
	"aaee55": "ZCC-2790",
	"aaee66": "ZCC-2791",
	"aaee77": "ZCC-2792",
	"aaee88": "ZCC-2793",
	"aaee99": "ZCC-2794",
	"aaeeaa": "ZCC-2795",
	"aaeebb": "ZCC-2796",
	"aaeecc": "ZCC-2797",
	"aaeedd": "ZCC-2798",
	"aaeeee": "ZCC-2799",
	"aaeeff": "ZCC-2800",
	"aaff00": "ZCC-2801",
	"aaff11": "ZCC-2802",
	"aaff22": "ZCC-2803",
	"aaff33": "ZCC-2804",
	"aaff44": "ZCC-2805",
	"aaff55": "ZCC-2806",
	"aaff66": "ZCC-2807",
	"aaff77": "ZCC-2808",
	"aaff88": "ZCC-2809",
	"aaff99": "ZCC-2810",
	"aaffaa": "ZCC-2811",
	"aaffbb": "ZCC-2812",
	"aaffcc": "ZCC-2813",
	"aaffdd": "ZCC-2814",
	"aaffee": "ZCC-2815",
	"aaffff": "ZCC-2816",
	"bb0000": "ZCC-2817",
	"bb0011": "ZCC-2818",
	"bb0022": "ZCC-2819",
	"bb0033": "ZCC-2820",
	"bb0044": "ZCC-2821",
	"bb0055": "ZCC-2822",
	"bb0066": "ZCC-2823",
	"bb0077": "ZCC-2824",
	"bb0088": "ZCC-2825",
	"bb0099": "ZCC-2826",
	"bb00aa": "ZCC-2827",
	"bb00bb": "ZCC-2828",
	"bb00cc": "ZCC-2829",
	"bb00dd": "ZCC-2830",
	"bb00ee": "ZCC-2831",
	"bb00ff": "ZCC-2832",
	"bb1100": "ZCC-2833",
	"bb1111": "ZCC-2834",
	"bb1122": "ZCC-2835",
	"bb1133": "ZCC-2836",
	"bb1144": "ZCC-2837",
	"bb1155": "ZCC-2838",
	"bb1166": "ZCC-2839",
	"bb1177": "ZCC-2840",
	"bb1188": "ZCC-2841",
	"bb1199": "ZCC-2842",
	"bb11aa": "ZCC-2843",
	"bb11bb": "ZCC-2844",
	"bb11cc": "ZCC-2845",
	"bb11dd": "ZCC-2846",
	"bb11ee": "ZCC-2847",
	"bb11ff": "ZCC-2848",
	"bb2200": "ZCC-2849",
	"bb2211": "ZCC-2850",
	"bb2222": "ZCC-2851",
	"bb2233": "ZCC-2852",
	"bb2244": "ZCC-2853",
	"bb2255": "ZCC-2854",
	"bb2266": "ZCC-2855",
	"bb2277": "ZCC-2856",
	"bb2288": "ZCC-2857",
	"bb2299": "ZCC-2858",
	"bb22aa": "ZCC-2859",
	"bb22bb": "ZCC-2860",
	"bb22cc": "ZCC-2861",
	"bb22dd": "ZCC-2862",
	"bb22ee": "ZCC-2863",
	"bb22ff": "ZCC-2864",
	"bb3300": "ZCC-2865",
	"bb3311": "ZCC-2866",
	"bb3322": "ZCC-2867",
	"bb3333": "ZCC-2868",
	"bb3344": "ZCC-2869",
	"bb3355": "ZCC-2870",
	"bb3366": "ZCC-2871",
	"bb3377": "ZCC-2872",
	"bb3388": "ZCC-2873",
	"bb3399": "ZCC-2874",
	"bb33aa": "ZCC-2875",
	"bb33bb": "ZCC-2876",
	"bb33cc": "ZCC-2877",
	"bb33dd": "ZCC-2878",
	"bb33ee": "ZCC-2879",
	"bb33ff": "ZCC-2880",
	"bb4400": "ZCC-2881",
	"bb4411": "ZCC-2882",
	"bb4422": "ZCC-2883",
	"bb4433": "ZCC-2884",
	"bb4444": "ZCC-2885",
	"bb4455": "ZCC-2886",
	"bb4466": "ZCC-2887",
	"bb4477": "ZCC-2888",
	"bb4488": "ZCC-2889",
	"bb4499": "ZCC-2890",
	"bb44aa": "ZCC-2891",
	"bb44bb": "ZCC-2892",
	"bb44cc": "ZCC-2893",
	"bb44dd": "ZCC-2894",
	"bb44ee": "ZCC-2895",
	"bb44ff": "ZCC-2896",
	"bb5500": "ZCC-2897",
	"bb5511": "ZCC-2898",
	"bb5522": "ZCC-2899",
	"bb5533": "ZCC-2900",
	"bb5544": "ZCC-2901",
	"bb5555": "ZCC-2902",
	"bb5566": "ZCC-2903",
	"bb5577": "ZCC-2904",
	"bb5588": "ZCC-2905",
	"bb5599": "ZCC-2906",
	"bb55aa": "ZCC-2907",
	"bb55bb": "ZCC-2908",
	"bb55cc": "ZCC-2909",
	"bb55dd": "ZCC-2910",
	"bb55ee": "ZCC-2911",
	"bb55ff": "ZCC-2912",
	"bb6600": "ZCC-2913",
	"bb6611": "ZCC-2914",
	"bb6622": "ZCC-2915",
	"bb6633": "ZCC-2916",
	"bb6644": "ZCC-2917",
	"bb6655": "ZCC-2918",
	"bb6666": "ZCC-2919",
	"bb6677": "ZCC-2920",
	"bb6688": "ZCC-2921",
	"bb6699": "ZCC-2922",
	"bb66aa": "ZCC-2923",
	"bb66bb": "ZCC-2924",
	"bb66cc": "ZCC-2925",
	"bb66dd": "ZCC-2926",
	"bb66ee": "ZCC-2927",
	"bb66ff": "ZCC-2928",
	"bb7700": "ZCC-2929",
	"bb7711": "ZCC-2930",
	"bb7722": "ZCC-2931",
	"bb7733": "ZCC-2932",
	"bb7744": "ZCC-2933",
	"bb7755": "ZCC-2934",
	"bb7766": "ZCC-2935",
	"bb7777": "ZCC-2936",
	"bb7788": "ZCC-2937",
	"bb7799": "ZCC-2938",
	"bb77aa": "ZCC-2939",
	"bb77bb": "ZCC-2940",
	"bb77cc": "ZCC-2941",
	"bb77dd": "ZCC-2942",
	"bb77ee": "ZCC-2943",
	"bb77ff": "ZCC-2944",
	"bb8800": "ZCC-2945",
	"bb8811": "ZCC-2946",
	"bb8822": "ZCC-2947",
	"bb8833": "ZCC-2948",
	"bb8844": "ZCC-2949",
	"bb8855": "ZCC-2950",
	"bb8866": "ZCC-2951",
	"bb8877": "ZCC-2952",
	"bb8888": "ZCC-2953",
	"bb8899": "ZCC-2954",
	"bb88aa": "ZCC-2955",
	"bb88bb": "ZCC-2956",
	"bb88cc": "ZCC-2957",
	"bb88dd": "ZCC-2958",
	"bb88ee": "ZCC-2959",
	"bb88ff": "ZCC-2960",
	"bb9900": "ZCC-2961",
	"bb9911": "ZCC-2962",
	"bb9922": "ZCC-2963",
	"bb9933": "ZCC-2964",
	"bb9944": "ZCC-2965",
	"bb9955": "ZCC-2966",
	"bb9966": "ZCC-2967",
	"bb9977": "ZCC-2968",
	"bb9988": "ZCC-2969",
	"bb9999": "ZCC-2970",
	"bb99aa": "ZCC-2971",
	"bb99bb": "ZCC-2972",
	"bb99cc": "ZCC-2973",
	"bb99dd": "ZCC-2974",
	"bb99ee": "ZCC-2975",
	"bb99ff": "ZCC-2976",
	"bbaa00": "ZCC-2977",
	"bbaa11": "ZCC-2978",
	"bbaa22": "ZCC-2979",
	"bbaa33": "ZCC-2980",
	"bbaa44": "ZCC-2981",
	"bbaa55": "ZCC-2982",
	"bbaa66": "ZCC-2983",
	"bbaa77": "ZCC-2984",
	"bbaa88": "ZCC-2985",
	"bbaa99": "ZCC-2986",
	"bbaaaa": "ZCC-2987",
	"bbaabb": "ZCC-2988",
	"bbaacc": "ZCC-2989",
	"bbaadd": "ZCC-2990",
	"bbaaee": "ZCC-2991",
	"bbaaff": "ZCC-2992",
	"bbbb00": "ZCC-2993",
	"bbbb11": "ZCC-2994",
	"bbbb22": "ZCC-2995",
	"bbbb33": "ZCC-2996",
	"bbbb44": "ZCC-2997",
	"bbbb55": "ZCC-2998",
	"bbbb66": "ZCC-2999",
	"bbbb77": "ZCC-3000",
	"bbbb88": "ZCC-3001",
	"bbbb99": "ZCC-3002",
	"bbbbaa": "ZCC-3003",
	"bbbbbb": "ZCC-3004",
	"bbbbcc": "ZCC-3005",
	"bbbbdd": "ZCC-3006",
	"bbbbee": "ZCC-3007",
	"bbbbff": "ZCC-3008",
	"bbcc00": "ZCC-3009",
	"bbcc11": "ZCC-3010",
	"bbcc22": "ZCC-3011",
	"bbcc33": "ZCC-3012",
	"bbcc44": "ZCC-3013",
	"bbcc55": "ZCC-3014",
	"bbcc66": "ZCC-3015",
	"bbcc77": "ZCC-3016",
	"bbcc88": "ZCC-3017",
	"bbcc99": "ZCC-3018",
	"bbccaa": "ZCC-3019",
	"bbccbb": "ZCC-3020",
	"bbcccc": "ZCC-3021",
	"bbccdd": "ZCC-3022",
	"bbccee": "ZCC-3023",
	"bbccff": "ZCC-3024",
	"bbdd00": "ZCC-3025",
	"bbdd11": "ZCC-3026",
	"bbdd22": "ZCC-3027",
	"bbdd33": "ZCC-3028",
	"bbdd44": "ZCC-3029",
	"bbdd55": "ZCC-3030",
	"bbdd66": "ZCC-3031",
	"bbdd77": "ZCC-3032",
	"bbdd88": "ZCC-3033",
	"bbdd99": "ZCC-3034",
	"bbddaa": "ZCC-3035",
	"bbddbb": "ZCC-3036",
	"bbddcc": "ZCC-3037",
	"bbdddd": "ZCC-3038",
	"bbddee": "ZCC-3039",
	"bbddff": "ZCC-3040",
	"bbee00": "ZCC-3041",
	"bbee11": "ZCC-3042",
	"bbee22": "ZCC-3043",
	"bbee33": "ZCC-3044",
	"bbee44": "ZCC-3045",
	"bbee55": "ZCC-3046",
	"bbee66": "ZCC-3047",
	"bbee77": "ZCC-3048",
	"bbee88": "ZCC-3049",
	"bbee99": "ZCC-3050",
	"bbeeaa": "ZCC-3051",
	"bbeebb": "ZCC-3052",
	"bbeecc": "ZCC-3053",
	"bbeedd": "ZCC-3054",
	"bbeeee": "ZCC-3055",
	"bbeeff": "ZCC-3056",
	"bbff00": "ZCC-3057",
	"bbff11": "ZCC-3058",
	"bbff22": "ZCC-3059",
	"bbff33": "ZCC-3060",
	"bbff44": "ZCC-3061",
	"bbff55": "ZCC-3062",
	"bbff66": "ZCC-3063",
	"bbff77": "ZCC-3064",
	"bbff88": "ZCC-3065",
	"bbff99": "ZCC-3066",
	"bbffaa": "ZCC-3067",
	"bbffbb": "ZCC-3068",
	"bbffcc": "ZCC-3069",
	"bbffdd": "ZCC-3070",
	"bbffee": "ZCC-3071",
	"bbffff": "ZCC-3072",
	"cc0000": "ZCC-3073",
	"cc0011": "ZCC-3074",
	"cc0022": "ZCC-3075",
	"cc0033": "ZCC-3076",
	"cc0044": "ZCC-3077",
	"cc0055": "ZCC-3078",
	"cc0066": "ZCC-3079",
	"cc0077": "ZCC-3080",
	"cc0088": "ZCC-3081",
	"cc0099": "ZCC-3082",
	"cc00aa": "ZCC-3083",
	"cc00bb": "ZCC-3084",
	"cc00cc": "ZCC-3085",
	"cc00dd": "ZCC-3086",
	"cc00ee": "ZCC-3087",
	"cc00ff": "ZCC-3088",
	"cc1100": "ZCC-3089",
	"cc1111": "ZCC-3090",
	"cc1122": "ZCC-3091",
	"cc1133": "ZCC-3092",
	"cc1144": "ZCC-3093",
	"cc1155": "ZCC-3094",
	"cc1166": "ZCC-3095",
	"cc1177": "ZCC-3096",
	"cc1188": "ZCC-3097",
	"cc1199": "ZCC-3098",
	"cc11aa": "ZCC-3099",
	"cc11bb": "ZCC-3100",
	"cc11cc": "ZCC-3101",
	"cc11dd": "ZCC-3102",
	"cc11ee": "ZCC-3103",
	"cc11ff": "ZCC-3104",
	"cc2200": "ZCC-3105",
	"cc2211": "ZCC-3106",
	"cc2222": "ZCC-3107",
	"cc2233": "ZCC-3108",
	"cc2244": "ZCC-3109",
	"cc2255": "ZCC-3110",
	"cc2266": "ZCC-3111",
	"cc2277": "ZCC-3112",
	"cc2288": "ZCC-3113",
	"cc2299": "ZCC-3114",
	"cc22aa": "ZCC-3115",
	"cc22bb": "ZCC-3116",
	"cc22cc": "ZCC-3117",
	"cc22dd": "ZCC-3118",
	"cc22ee": "ZCC-3119",
	"cc22ff": "ZCC-3120",
	"cc3300": "ZCC-3121",
	"cc3311": "ZCC-3122",
	"cc3322": "ZCC-3123",
	"cc3333": "ZCC-3124",
	"cc3344": "ZCC-3125",
	"cc3355": "ZCC-3126",
	"cc3366": "ZCC-3127",
	"cc3377": "ZCC-3128",
	"cc3388": "ZCC-3129",
	"cc3399": "ZCC-3130",
	"cc33aa": "ZCC-3131",
	"cc33bb": "ZCC-3132",
	"cc33cc": "ZCC-3133",
	"cc33dd": "ZCC-3134",
	"cc33ee": "ZCC-3135",
	"cc33ff": "ZCC-3136",
	"cc4400": "ZCC-3137",
	"cc4411": "ZCC-3138",
	"cc4422": "ZCC-3139",
	"cc4433": "ZCC-3140",
	"cc4444": "ZCC-3141",
	"cc4455": "ZCC-3142",
	"cc4466": "ZCC-3143",
	"cc4477": "ZCC-3144",
	"cc4488": "ZCC-3145",
	"cc4499": "ZCC-3146",
	"cc44aa": "ZCC-3147",
	"cc44bb": "ZCC-3148",
	"cc44cc": "ZCC-3149",
	"cc44dd": "ZCC-3150",
	"cc44ee": "ZCC-3151",
	"cc44ff": "ZCC-3152",
	"cc5500": "ZCC-3153",
	"cc5511": "ZCC-3154",
	"cc5522": "ZCC-3155",
	"cc5533": "ZCC-3156",
	"cc5544": "ZCC-3157",
	"cc5555": "ZCC-3158",
	"cc5566": "ZCC-3159",
	"cc5577": "ZCC-3160",
	"cc5588": "ZCC-3161",
	"cc5599": "ZCC-3162",
	"cc55aa": "ZCC-3163",
	"cc55bb": "ZCC-3164",
	"cc55cc": "ZCC-3165",
	"cc55dd": "ZCC-3166",
	"cc55ee": "ZCC-3167",
	"cc55ff": "ZCC-3168",
	"cc6600": "ZCC-3169",
	"cc6611": "ZCC-3170",
	"cc6622": "ZCC-3171",
	"cc6633": "ZCC-3172",
	"cc6644": "ZCC-3173",
	"cc6655": "ZCC-3174",
	"cc6666": "ZCC-3175",
	"cc6677": "ZCC-3176",
	"cc6688": "ZCC-3177",
	"cc6699": "ZCC-3178",
	"cc66aa": "ZCC-3179",
	"cc66bb": "ZCC-3180",
	"cc66cc": "ZCC-3181",
	"cc66dd": "ZCC-3182",
	"cc66ee": "ZCC-3183",
	"cc66ff": "ZCC-3184",
	"cc7700": "ZCC-3185",
	"cc7711": "ZCC-3186",
	"cc7722": "ZCC-3187",
	"cc7733": "ZCC-3188",
	"cc7744": "ZCC-3189",
	"cc7755": "ZCC-3190",
	"cc7766": "ZCC-3191",
	"cc7777": "ZCC-3192",
	"cc7788": "ZCC-3193",
	"cc7799": "ZCC-3194",
	"cc77aa": "ZCC-3195",
	"cc77bb": "ZCC-3196",
	"cc77cc": "ZCC-3197",
	"cc77dd": "ZCC-3198",
	"cc77ee": "ZCC-3199",
	"cc77ff": "ZCC-3200",
	"cc8800": "ZCC-3201",
	"cc8811": "ZCC-3202",
	"cc8822": "ZCC-3203",
	"cc8833": "ZCC-3204",
	"cc8844": "ZCC-3205",
	"cc8855": "ZCC-3206",
	"cc8866": "ZCC-3207",
	"cc8877": "ZCC-3208",
	"cc8888": "ZCC-3209",
	"cc8899": "ZCC-3210",
	"cc88aa": "ZCC-3211",
	"cc88bb": "ZCC-3212",
	"cc88cc": "ZCC-3213",
	"cc88dd": "ZCC-3214",
	"cc88ee": "ZCC-3215",
	"cc88ff": "ZCC-3216",
	"cc9900": "ZCC-3217",
	"cc9911": "ZCC-3218",
	"cc9922": "ZCC-3219",
	"cc9933": "ZCC-3220",
	"cc9944": "ZCC-3221",
	"cc9955": "ZCC-3222",
	"cc9966": "ZCC-3223",
	"cc9977": "ZCC-3224",
	"cc9988": "ZCC-3225",
	"cc9999": "ZCC-3226",
	"cc99aa": "ZCC-3227",
	"cc99bb": "ZCC-3228",
	"cc99cc": "ZCC-3229",
	"cc99dd": "ZCC-3230",
	"cc99ee": "ZCC-3231",
	"cc99ff": "ZCC-3232",
	"ccaa00": "ZCC-3233",
	"ccaa11": "ZCC-3234",
	"ccaa22": "ZCC-3235",
	"ccaa33": "ZCC-3236",
	"ccaa44": "ZCC-3237",
	"ccaa55": "ZCC-3238",
	"ccaa66": "ZCC-3239",
	"ccaa77": "ZCC-3240",
	"ccaa88": "ZCC-3241",
	"ccaa99": "ZCC-3242",
	"ccaaaa": "ZCC-3243",
	"ccaabb": "ZCC-3244",
	"ccaacc": "ZCC-3245",
	"ccaadd": "ZCC-3246",
	"ccaaee": "ZCC-3247",
	"ccaaff": "ZCC-3248",
	"ccbb00": "ZCC-3249",
	"ccbb11": "ZCC-3250",
	"ccbb22": "ZCC-3251",
	"ccbb33": "ZCC-3252",
	"ccbb44": "ZCC-3253",
	"ccbb55": "ZCC-3254",
	"ccbb66": "ZCC-3255",
	"ccbb77": "ZCC-3256",
	"ccbb88": "ZCC-3257",
	"ccbb99": "ZCC-3258",
	"ccbbaa": "ZCC-3259",
	"ccbbbb": "ZCC-3260",
	"ccbbcc": "ZCC-3261",
	"ccbbdd": "ZCC-3262",
	"ccbbee": "ZCC-3263",
	"ccbbff": "ZCC-3264",
	"cccc00": "ZCC-3265",
	"cccc11": "ZCC-3266",
	"cccc22": "ZCC-3267",
	"cccc33": "ZCC-3268",
	"cccc44": "ZCC-3269",
	"cccc55": "ZCC-3270",
	"cccc66": "ZCC-3271",
	"cccc77": "ZCC-3272",
	"cccc88": "ZCC-3273",
	"cccc99": "ZCC-3274",
	"ccccaa": "ZCC-3275",
	"ccccbb": "ZCC-3276",
	"cccccc": "ZCC-3277",
	"ccccdd": "ZCC-3278",
	"ccccee": "ZCC-3279",
	"ccccff": "ZCC-3280",
	"ccdd00": "ZCC-3281",
	"ccdd11": "ZCC-3282",
	"ccdd22": "ZCC-3283",
	"ccdd33": "ZCC-3284",
	"ccdd44": "ZCC-3285",
	"ccdd55": "ZCC-3286",
	"ccdd66": "ZCC-3287",
	"ccdd77": "ZCC-3288",
	"ccdd88": "ZCC-3289",
	"ccdd99": "ZCC-3290",
	"ccddaa": "ZCC-3291",
	"ccddbb": "ZCC-3292",
	"ccddcc": "ZCC-3293",
	"ccdddd": "ZCC-3294",
	"ccddee": "ZCC-3295",
	"ccddff": "ZCC-3296",
	"ccee00": "ZCC-3297",
	"ccee11": "ZCC-3298",
	"ccee22": "ZCC-3299",
	"ccee33": "ZCC-3300",
	"ccee44": "ZCC-3301",
	"ccee55": "ZCC-3302",
	"ccee66": "ZCC-3303",
	"ccee77": "ZCC-3304",
	"ccee88": "ZCC-3305",
	"ccee99": "ZCC-3306",
	"cceeaa": "ZCC-3307",
	"cceebb": "ZCC-3308",
	"cceecc": "ZCC-3309",
	"cceedd": "ZCC-3310",
	"cceeee": "ZCC-3311",
	"cceeff": "ZCC-3312",
	"ccff00": "ZCC-3313",
	"ccff11": "ZCC-3314",
	"ccff22": "ZCC-3315",
	"ccff33": "ZCC-3316",
	"ccff44": "ZCC-3317",
	"ccff55": "ZCC-3318",
	"ccff66": "ZCC-3319",
	"ccff77": "ZCC-3320",
	"ccff88": "ZCC-3321",
	"ccff99": "ZCC-3322",
	"ccffaa": "ZCC-3323",
	"ccffbb": "ZCC-3324",
	"ccffcc": "ZCC-3325",
	"ccffdd": "ZCC-3326",
	"ccffee": "ZCC-3327",
	"ccffff": "ZCC-3328",
	"dd0000": "ZCC-3329",
	"dd0011": "ZCC-3330",
	"dd0022": "ZCC-3331",
	"dd0033": "ZCC-3332",
	"dd0044": "ZCC-3333",
	"dd0055": "ZCC-3334",
	"dd0066": "ZCC-3335",
	"dd0077": "ZCC-3336",
	"dd0088": "ZCC-3337",
	"dd0099": "ZCC-3338",
	"dd00aa": "ZCC-3339",
	"dd00bb": "ZCC-3340",
	"dd00cc": "ZCC-3341",
	"dd00dd": "ZCC-3342",
	"dd00ee": "ZCC-3343",
	"dd00ff": "ZCC-3344",
	"dd1100": "ZCC-3345",
	"dd1111": "ZCC-3346",
	"dd1122": "ZCC-3347",
	"dd1133": "ZCC-3348",
	"dd1144": "ZCC-3349",
	"dd1155": "ZCC-3350",
	"dd1166": "ZCC-3351",
	"dd1177": "ZCC-3352",
	"dd1188": "ZCC-3353",
	"dd1199": "ZCC-3354",
	"dd11aa": "ZCC-3355",
	"dd11bb": "ZCC-3356",
	"dd11cc": "ZCC-3357",
	"dd11dd": "ZCC-3358",
	"dd11ee": "ZCC-3359",
	"dd11ff": "ZCC-3360",
	"dd2200": "ZCC-3361",
	"dd2211": "ZCC-3362",
	"dd2222": "ZCC-3363",
	"dd2233": "ZCC-3364",
	"dd2244": "ZCC-3365",
	"dd2255": "ZCC-3366",
	"dd2266": "ZCC-3367",
	"dd2277": "ZCC-3368",
	"dd2288": "ZCC-3369",
	"dd2299": "ZCC-3370",
	"dd22aa": "ZCC-3371",
	"dd22bb": "ZCC-3372",
	"dd22cc": "ZCC-3373",
	"dd22dd": "ZCC-3374",
	"dd22ee": "ZCC-3375",
	"dd22ff": "ZCC-3376",
	"dd3300": "ZCC-3377",
	"dd3311": "ZCC-3378",
	"dd3322": "ZCC-3379",
	"dd3333": "ZCC-3380",
	"dd3344": "ZCC-3381",
	"dd3355": "ZCC-3382",
	"dd3366": "ZCC-3383",
	"dd3377": "ZCC-3384",
	"dd3388": "ZCC-3385",
	"dd3399": "ZCC-3386",
	"dd33aa": "ZCC-3387",
	"dd33bb": "ZCC-3388",
	"dd33cc": "ZCC-3389",
	"dd33dd": "ZCC-3390",
	"dd33ee": "ZCC-3391",
	"dd33ff": "ZCC-3392",
	"dd4400": "ZCC-3393",
	"dd4411": "ZCC-3394",
	"dd4422": "ZCC-3395",
	"dd4433": "ZCC-3396",
	"dd4444": "ZCC-3397",
	"dd4455": "ZCC-3398",
	"dd4466": "ZCC-3399",
	"dd4477": "ZCC-3400",
	"dd4488": "ZCC-3401",
	"dd4499": "ZCC-3402",
	"dd44aa": "ZCC-3403",
	"dd44bb": "ZCC-3404",
	"dd44cc": "ZCC-3405",
	"dd44dd": "ZCC-3406",
	"dd44ee": "ZCC-3407",
	"dd44ff": "ZCC-3408",
	"dd5500": "ZCC-3409",
	"dd5511": "ZCC-3410",
	"dd5522": "ZCC-3411",
	"dd5533": "ZCC-3412",
	"dd5544": "ZCC-3413",
	"dd5555": "ZCC-3414",
	"dd5566": "ZCC-3415",
	"dd5577": "ZCC-3416",
	"dd5588": "ZCC-3417",
	"dd5599": "ZCC-3418",
	"dd55aa": "ZCC-3419",
	"dd55bb": "ZCC-3420",
	"dd55cc": "ZCC-3421",
	"dd55dd": "ZCC-3422",
	"dd55ee": "ZCC-3423",
	"dd55ff": "ZCC-3424",
	"dd6600": "ZCC-3425",
	"dd6611": "ZCC-3426",
	"dd6622": "ZCC-3427",
	"dd6633": "ZCC-3428",
	"dd6644": "ZCC-3429",
	"dd6655": "ZCC-3430",
	"dd6666": "ZCC-3431",
	"dd6677": "ZCC-3432",
	"dd6688": "ZCC-3433",
	"dd6699": "ZCC-3434",
	"dd66aa": "ZCC-3435",
	"dd66bb": "ZCC-3436",
	"dd66cc": "ZCC-3437",
	"dd66dd": "ZCC-3438",
	"dd66ee": "ZCC-3439",
	"dd66ff": "ZCC-3440",
	"dd7700": "ZCC-3441",
	"dd7711": "ZCC-3442",
	"dd7722": "ZCC-3443",
	"dd7733": "ZCC-3444",
	"dd7744": "ZCC-3445",
	"dd7755": "ZCC-3446",
	"dd7766": "ZCC-3447",
	"dd7777": "ZCC-3448",
	"dd7788": "ZCC-3449",
	"dd7799": "ZCC-3450",
	"dd77aa": "ZCC-3451",
	"dd77bb": "ZCC-3452",
	"dd77cc": "ZCC-3453",
	"dd77dd": "ZCC-3454",
	"dd77ee": "ZCC-3455",
	"dd77ff": "ZCC-3456",
	"dd8800": "ZCC-3457",
	"dd8811": "ZCC-3458",
	"dd8822": "ZCC-3459",
	"dd8833": "ZCC-3460",
	"dd8844": "ZCC-3461",
	"dd8855": "ZCC-3462",
	"dd8866": "ZCC-3463",
	"dd8877": "ZCC-3464",
	"dd8888": "ZCC-3465",
	"dd8899": "ZCC-3466",
	"dd88aa": "ZCC-3467",
	"dd88bb": "ZCC-3468",
	"dd88cc": "ZCC-3469",
	"dd88dd": "ZCC-3470",
	"dd88ee": "ZCC-3471",
	"dd88ff": "ZCC-3472",
	"dd9900": "ZCC-3473",
	"dd9911": "ZCC-3474",
	"dd9922": "ZCC-3475",
	"dd9933": "ZCC-3476",
	"dd9944": "ZCC-3477",
	"dd9955": "ZCC-3478",
	"dd9966": "ZCC-3479",
	"dd9977": "ZCC-3480",
	"dd9988": "ZCC-3481",
	"dd9999": "ZCC-3482",
	"dd99aa": "ZCC-3483",
	"dd99bb": "ZCC-3484",
	"dd99cc": "ZCC-3485",
	"dd99dd": "ZCC-3486",
	"dd99ee": "ZCC-3487",
	"dd99ff": "ZCC-3488",
	"ddaa00": "ZCC-3489",
	"ddaa11": "ZCC-3490",
	"ddaa22": "ZCC-3491",
	"ddaa33": "ZCC-3492",
	"ddaa44": "ZCC-3493",
	"ddaa55": "ZCC-3494",
	"ddaa66": "ZCC-3495",
	"ddaa77": "ZCC-3496",
	"ddaa88": "ZCC-3497",
	"ddaa99": "ZCC-3498",
	"ddaaaa": "ZCC-3499",
	"ddaabb": "ZCC-3500",
	"ddaacc": "ZCC-3501",
	"ddaadd": "ZCC-3502",
	"ddaaee": "ZCC-3503",
	"ddaaff": "ZCC-3504",
	"ddbb00": "ZCC-3505",
	"ddbb11": "ZCC-3506",
	"ddbb22": "ZCC-3507",
	"ddbb33": "ZCC-3508",
	"ddbb44": "ZCC-3509",
	"ddbb55": "ZCC-3510",
	"ddbb66": "ZCC-3511",
	"ddbb77": "ZCC-3512",
	"ddbb88": "ZCC-3513",
	"ddbb99": "ZCC-3514",
	"ddbbaa": "ZCC-3515",
	"ddbbbb": "ZCC-3516",
	"ddbbcc": "ZCC-3517",
	"ddbbdd": "ZCC-3518",
	"ddbbee": "ZCC-3519",
	"ddbbff": "ZCC-3520",
	"ddcc00": "ZCC-3521",
	"ddcc11": "ZCC-3522",
	"ddcc22": "ZCC-3523",
	"ddcc33": "ZCC-3524",
	"ddcc44": "ZCC-3525",
	"ddcc55": "ZCC-3526",
	"ddcc66": "ZCC-3527",
	"ddcc77": "ZCC-3528",
	"ddcc88": "ZCC-3529",
	"ddcc99": "ZCC-3530",
	"ddccaa": "ZCC-3531",
	"ddccbb": "ZCC-3532",
	"ddcccc": "ZCC-3533",
	"ddccdd": "ZCC-3534",
	"ddccee": "ZCC-3535",
	"ddccff": "ZCC-3536",
	"dddd00": "ZCC-3537",
	"dddd11": "ZCC-3538",
	"dddd22": "ZCC-3539",
	"dddd33": "ZCC-3540",
	"dddd44": "ZCC-3541",
	"dddd55": "ZCC-3542",
	"dddd66": "ZCC-3543",
	"dddd77": "ZCC-3544",
	"dddd88": "ZCC-3545",
	"dddd99": "ZCC-3546",
	"ddddaa": "ZCC-3547",
	"ddddbb": "ZCC-3548",
	"ddddcc": "ZCC-3549",
	"dddddd": "ZCC-3550",
	"ddddee": "ZCC-3551",
	"ddddff": "ZCC-3552",
	"ddee00": "ZCC-3553",
	"ddee11": "ZCC-3554",
	"ddee22": "ZCC-3555",
	"ddee33": "ZCC-3556",
	"ddee44": "ZCC-3557",
	"ddee55": "ZCC-3558",
	"ddee66": "ZCC-3559",
	"ddee77": "ZCC-3560",
	"ddee88": "ZCC-3561",
	"ddee99": "ZCC-3562",
	"ddeeaa": "ZCC-3563",
	"ddeebb": "ZCC-3564",
	"ddeecc": "ZCC-3565",
	"ddeedd": "ZCC-3566",
	"ddeeee": "ZCC-3567",
	"ddeeff": "ZCC-3568",
	"ddff00": "ZCC-3569",
	"ddff11": "ZCC-3570",
	"ddff22": "ZCC-3571",
	"ddff33": "ZCC-3572",
	"ddff44": "ZCC-3573",
	"ddff55": "ZCC-3574",
	"ddff66": "ZCC-3575",
	"ddff77": "ZCC-3576",
	"ddff88": "ZCC-3577",
	"ddff99": "ZCC-3578",
	"ddffaa": "ZCC-3579",
	"ddffbb": "ZCC-3580",
	"ddffcc": "ZCC-3581",
	"ddffdd": "ZCC-3582",
	"ddffee": "ZCC-3583",
	"ddffff": "ZCC-3584",
	"ee0000": "ZCC-3585",
	"ee0011": "ZCC-3586",
	"ee0022": "ZCC-3587",
	"ee0033": "ZCC-3588",
	"ee0044": "ZCC-3589",
	"ee0055": "ZCC-3590",
	"ee0066": "ZCC-3591",
	"ee0077": "ZCC-3592",
	"ee0088": "ZCC-3593",
	"ee0099": "ZCC-3594",
	"ee00aa": "ZCC-3595",
	"ee00bb": "ZCC-3596",
	"ee00cc": "ZCC-3597",
	"ee00dd": "ZCC-3598",
	"ee00ee": "ZCC-3599",
	"ee00ff": "ZCC-3600",
	"ee1100": "ZCC-3601",
	"ee1111": "ZCC-3602",
	"ee1122": "ZCC-3603",
	"ee1133": "ZCC-3604",
	"ee1144": "ZCC-3605",
	"ee1155": "ZCC-3606",
	"ee1166": "ZCC-3607",
	"ee1177": "ZCC-3608",
	"ee1188": "ZCC-3609",
	"ee1199": "ZCC-3610",
	"ee11aa": "ZCC-3611",
	"ee11bb": "ZCC-3612",
	"ee11cc": "ZCC-3613",
	"ee11dd": "ZCC-3614",
	"ee11ee": "ZCC-3615",
	"ee11ff": "ZCC-3616",
	"ee2200": "ZCC-3617",
	"ee2211": "ZCC-3618",
	"ee2222": "ZCC-3619",
	"ee2233": "ZCC-3620",
	"ee2244": "ZCC-3621",
	"ee2255": "ZCC-3622",
	"ee2266": "ZCC-3623",
	"ee2277": "ZCC-3624",
	"ee2288": "ZCC-3625",
	"ee2299": "ZCC-3626",
	"ee22aa": "ZCC-3627",
	"ee22bb": "ZCC-3628",
	"ee22cc": "ZCC-3629",
	"ee22dd": "ZCC-3630",
	"ee22ee": "ZCC-3631",
	"ee22ff": "ZCC-3632",
	"ee3300": "ZCC-3633",
	"ee3311": "ZCC-3634",
	"ee3322": "ZCC-3635",
	"ee3333": "ZCC-3636",
	"ee3344": "ZCC-3637",
	"ee3355": "ZCC-3638",
	"ee3366": "ZCC-3639",
	"ee3377": "ZCC-3640",
	"ee3388": "ZCC-3641",
	"ee3399": "ZCC-3642",
	"ee33aa": "ZCC-3643",
	"ee33bb": "ZCC-3644",
	"ee33cc": "ZCC-3645",
	"ee33dd": "ZCC-3646",
	"ee33ee": "ZCC-3647",
	"ee33ff": "ZCC-3648",
	"ee4400": "ZCC-3649",
	"ee4411": "ZCC-3650",
	"ee4422": "ZCC-3651",
	"ee4433": "ZCC-3652",
	"ee4444": "ZCC-3653",
	"ee4455": "ZCC-3654",
	"ee4466": "ZCC-3655",
	"ee4477": "ZCC-3656",
	"ee4488": "ZCC-3657",
	"ee4499": "ZCC-3658",
	"ee44aa": "ZCC-3659",
	"ee44bb": "ZCC-3660",
	"ee44cc": "ZCC-3661",
	"ee44dd": "ZCC-3662",
	"ee44ee": "ZCC-3663",
	"ee44ff": "ZCC-3664",
	"ee5500": "ZCC-3665",
	"ee5511": "ZCC-3666",
	"ee5522": "ZCC-3667",
	"ee5533": "ZCC-3668",
	"ee5544": "ZCC-3669",
	"ee5555": "ZCC-3670",
	"ee5566": "ZCC-3671",
	"ee5577": "ZCC-3672",
	"ee5588": "ZCC-3673",
	"ee5599": "ZCC-3674",
	"ee55aa": "ZCC-3675",
	"ee55bb": "ZCC-3676",
	"ee55cc": "ZCC-3677",
	"ee55dd": "ZCC-3678",
	"ee55ee": "ZCC-3679",
	"ee55ff": "ZCC-3680",
	"ee6600": "ZCC-3681",
	"ee6611": "ZCC-3682",
	"ee6622": "ZCC-3683",
	"ee6633": "ZCC-3684",
	"ee6644": "ZCC-3685",
	"ee6655": "ZCC-3686",
	"ee6666": "ZCC-3687",
	"ee6677": "ZCC-3688",
	"ee6688": "ZCC-3689",
	"ee6699": "ZCC-3690",
	"ee66aa": "ZCC-3691",
	"ee66bb": "ZCC-3692",
	"ee66cc": "ZCC-3693",
	"ee66dd": "ZCC-3694",
	"ee66ee": "ZCC-3695",
	"ee66ff": "ZCC-3696",
	"ee7700": "ZCC-3697",
	"ee7711": "ZCC-3698",
	"ee7722": "ZCC-3699",
	"ee7733": "ZCC-3700",
	"ee7744": "ZCC-3701",
	"ee7755": "ZCC-3702",
	"ee7766": "ZCC-3703",
	"ee7777": "ZCC-3704",
	"ee7788": "ZCC-3705",
	"ee7799": "ZCC-3706",
	"ee77aa": "ZCC-3707",
	"ee77bb": "ZCC-3708",
	"ee77cc": "ZCC-3709",
	"ee77dd": "ZCC-3710",
	"ee77ee": "ZCC-3711",
	"ee77ff": "ZCC-3712",
	"ee8800": "ZCC-3713",
	"ee8811": "ZCC-3714",
	"ee8822": "ZCC-3715",
	"ee8833": "ZCC-3716",
	"ee8844": "ZCC-3717",
	"ee8855": "ZCC-3718",
	"ee8866": "ZCC-3719",
	"ee8877": "ZCC-3720",
	"ee8888": "ZCC-3721",
	"ee8899": "ZCC-3722",
	"ee88aa": "ZCC-3723",
	"ee88bb": "ZCC-3724",
	"ee88cc": "ZCC-3725",
	"ee88dd": "ZCC-3726",
	"ee88ee": "ZCC-3727",
	"ee88ff": "ZCC-3728",
	"ee9900": "ZCC-3729",
	"ee9911": "ZCC-3730",
	"ee9922": "ZCC-3731",
	"ee9933": "ZCC-3732",
	"ee9944": "ZCC-3733",
	"ee9955": "ZCC-3734",
	"ee9966": "ZCC-3735",
	"ee9977": "ZCC-3736",
	"ee9988": "ZCC-3737",
	"ee9999": "ZCC-3738",
	"ee99aa": "ZCC-3739",
	"ee99bb": "ZCC-3740",
	"ee99cc": "ZCC-3741",
	"ee99dd": "ZCC-3742",
	"ee99ee": "ZCC-3743",
	"ee99ff": "ZCC-3744",
	"eeaa00": "ZCC-3745",
	"eeaa11": "ZCC-3746",
	"eeaa22": "ZCC-3747",
	"eeaa33": "ZCC-3748",
	"eeaa44": "ZCC-3749",
	"eeaa55": "ZCC-3750",
	"eeaa66": "ZCC-3751",
	"eeaa77": "ZCC-3752",
	"eeaa88": "ZCC-3753",
	"eeaa99": "ZCC-3754",
	"eeaaaa": "ZCC-3755",
	"eeaabb": "ZCC-3756",
	"eeaacc": "ZCC-3757",
	"eeaadd": "ZCC-3758",
	"eeaaee": "ZCC-3759",
	"eeaaff": "ZCC-3760",
	"eebb00": "ZCC-3761",
	"eebb11": "ZCC-3762",
	"eebb22": "ZCC-3763",
	"eebb33": "ZCC-3764",
	"eebb44": "ZCC-3765",
	"eebb55": "ZCC-3766",
	"eebb66": "ZCC-3767",
	"eebb77": "ZCC-3768",
	"eebb88": "ZCC-3769",
	"eebb99": "ZCC-3770",
	"eebbaa": "ZCC-3771",
	"eebbbb": "ZCC-3772",
	"eebbcc": "ZCC-3773",
	"eebbdd": "ZCC-3774",
	"eebbee": "ZCC-3775",
	"eebbff": "ZCC-3776",
	"eecc00": "ZCC-3777",
	"eecc11": "ZCC-3778",
	"eecc22": "ZCC-3779",
	"eecc33": "ZCC-3780",
	"eecc44": "ZCC-3781",
	"eecc55": "ZCC-3782",
	"eecc66": "ZCC-3783",
	"eecc77": "ZCC-3784",
	"eecc88": "ZCC-3785",
	"eecc99": "ZCC-3786",
	"eeccaa": "ZCC-3787",
	"eeccbb": "ZCC-3788",
	"eecccc": "ZCC-3789",
	"eeccdd": "ZCC-3790",
	"eeccee": "ZCC-3791",
	"eeccff": "ZCC-3792",
	"eedd00": "ZCC-3793",
	"eedd11": "ZCC-3794",
	"eedd22": "ZCC-3795",
	"eedd33": "ZCC-3796",
	"eedd44": "ZCC-3797",
	"eedd55": "ZCC-3798",
	"eedd66": "ZCC-3799",
	"eedd77": "ZCC-3800",
	"eedd88": "ZCC-3801",
	"eedd99": "ZCC-3802",
	"eeddaa": "ZCC-3803",
	"eeddbb": "ZCC-3804",
	"eeddcc": "ZCC-3805",
	"eedddd": "ZCC-3806",
	"eeddee": "ZCC-3807",
	"eeddff": "ZCC-3808",
	"eeee00": "ZCC-3809",
	"eeee11": "ZCC-3810",
	"eeee22": "ZCC-3811",
	"eeee33": "ZCC-3812",
	"eeee44": "ZCC-3813",
	"eeee55": "ZCC-3814",
	"eeee66": "ZCC-3815",
	"eeee77": "ZCC-3816",
	"eeee88": "ZCC-3817",
	"eeee99": "ZCC-3818",
	"eeeeaa": "ZCC-3819",
	"eeeebb": "ZCC-3820",
	"eeeecc": "ZCC-3821",
	"eeeedd": "ZCC-3822",
	"eeeeee": "ZCC-3823",
	"eeeeff": "ZCC-3824",
	"eeff00": "ZCC-3825",
	"eeff11": "ZCC-3826",
	"eeff22": "ZCC-3827",
	"eeff33": "ZCC-3828",
	"eeff44": "ZCC-3829",
	"eeff55": "ZCC-3830",
	"eeff66": "ZCC-3831",
	"eeff77": "ZCC-3832",
	"eeff88": "ZCC-3833",
	"eeff99": "ZCC-3834",
	"eeffaa": "ZCC-3835",
	"eeffbb": "ZCC-3836",
	"eeffcc": "ZCC-3837",
	"eeffdd": "ZCC-3838",
	"eeffee": "ZCC-3839",
	"eeffff": "ZCC-3840",
	"ff0000": "ZCC-3841",
	"ff0011": "ZCC-3842",
	"ff0022": "ZCC-3843",
	"ff0033": "ZCC-3844",
	"ff0044": "ZCC-3845",
	"ff0055": "ZCC-3846",
	"ff0066": "ZCC-3847",
	"ff0077": "ZCC-3848",
	"ff0088": "ZCC-3849",
	"ff0099": "ZCC-3850",
	"ff00aa": "ZCC-3851",
	"ff00bb": "ZCC-3852",
	"ff00cc": "ZCC-3853",
	"ff00dd": "ZCC-3854",
	"ff00ee": "ZCC-3855",
	"ff00ff": "ZCC-3856",
	"ff1100": "ZCC-3857",
	"ff1111": "ZCC-3858",
	"ff1122": "ZCC-3859",
	"ff1133": "ZCC-3860",
	"ff1144": "ZCC-3861",
	"ff1155": "ZCC-3862",
	"ff1166": "ZCC-3863",
	"ff1177": "ZCC-3864",
	"ff1188": "ZCC-3865",
	"ff1199": "ZCC-3866",
	"ff11aa": "ZCC-3867",
	"ff11bb": "ZCC-3868",
	"ff11cc": "ZCC-3869",
	"ff11dd": "ZCC-3870",
	"ff11ee": "ZCC-3871",
	"ff11ff": "ZCC-3872",
	"ff2200": "ZCC-3873",
	"ff2211": "ZCC-3874",
	"ff2222": "ZCC-3875",
	"ff2233": "ZCC-3876",
	"ff2244": "ZCC-3877",
	"ff2255": "ZCC-3878",
	"ff2266": "ZCC-3879",
	"ff2277": "ZCC-3880",
	"ff2288": "ZCC-3881",
	"ff2299": "ZCC-3882",
	"ff22aa": "ZCC-3883",
	"ff22bb": "ZCC-3884",
	"ff22cc": "ZCC-3885",
	"ff22dd": "ZCC-3886",
	"ff22ee": "ZCC-3887",
	"ff22ff": "ZCC-3888",
	"ff3300": "ZCC-3889",
	"ff3311": "ZCC-3890",
	"ff3322": "ZCC-3891",
	"ff3333": "ZCC-3892",
	"ff3344": "ZCC-3893",
	"ff3355": "ZCC-3894",
	"ff3366": "ZCC-3895",
	"ff3377": "ZCC-3896",
	"ff3388": "ZCC-3897",
	"ff3399": "ZCC-3898",
	"ff33aa": "ZCC-3899",
	"ff33bb": "ZCC-3900",
	"ff33cc": "ZCC-3901",
	"ff33dd": "ZCC-3902",
	"ff33ee": "ZCC-3903",
	"ff33ff": "ZCC-3904",
	"ff4400": "ZCC-3905",
	"ff4411": "ZCC-3906",
	"ff4422": "ZCC-3907",
	"ff4433": "ZCC-3908",
	"ff4444": "ZCC-3909",
	"ff4455": "ZCC-3910",
	"ff4466": "ZCC-3911",
	"ff4477": "ZCC-3912",
	"ff4488": "ZCC-3913",
	"ff4499": "ZCC-3914",
	"ff44aa": "ZCC-3915",
	"ff44bb": "ZCC-3916",
	"ff44cc": "ZCC-3917",
	"ff44dd": "ZCC-3918",
	"ff44ee": "ZCC-3919",
	"ff44ff": "ZCC-3920",
	"ff5500": "ZCC-3921",
	"ff5511": "ZCC-3922",
	"ff5522": "ZCC-3923",
	"ff5533": "ZCC-3924",
	"ff5544": "ZCC-3925",
	"ff5555": "ZCC-3926",
	"ff5566": "ZCC-3927",
	"ff5577": "ZCC-3928",
	"ff5588": "ZCC-3929",
	"ff5599": "ZCC-3930",
	"ff55aa": "ZCC-3931",
	"ff55bb": "ZCC-3932",
	"ff55cc": "ZCC-3933",
	"ff55dd": "ZCC-3934",
	"ff55ee": "ZCC-3935",
	"ff55ff": "ZCC-3936",
	"ff6600": "ZCC-3937",
	"ff6611": "ZCC-3938",
	"ff6622": "ZCC-3939",
	"ff6633": "ZCC-3940",
	"ff6644": "ZCC-3941",
	"ff6655": "ZCC-3942",
	"ff6666": "ZCC-3943",
	"ff6677": "ZCC-3944",
	"ff6688": "ZCC-3945",
	"ff6699": "ZCC-3946",
	"ff66aa": "ZCC-3947",
	"ff66bb": "ZCC-3948",
	"ff66cc": "ZCC-3949",
	"ff66dd": "ZCC-3950",
	"ff66ee": "ZCC-3951",
	"ff66ff": "ZCC-3952",
	"ff7700": "ZCC-3953",
	"ff7711": "ZCC-3954",
	"ff7722": "ZCC-3955",
	"ff7733": "ZCC-3956",
	"ff7744": "ZCC-3957",
	"ff7755": "ZCC-3958",
	"ff7766": "ZCC-3959",
	"ff7777": "ZCC-3960",
	"ff7788": "ZCC-3961",
	"ff7799": "ZCC-3962",
	"ff77aa": "ZCC-3963",
	"ff77bb": "ZCC-3964",
	"ff77cc": "ZCC-3965",
	"ff77dd": "ZCC-3966",
	"ff77ee": "ZCC-3967",
	"ff77ff": "ZCC-3968",
	"ff8800": "ZCC-3969",
	"ff8811": "ZCC-3970",
	"ff8822": "ZCC-3971",
	"ff8833": "ZCC-3972",
	"ff8844": "ZCC-3973",
	"ff8855": "ZCC-3974",
	"ff8866": "ZCC-3975",
	"ff8877": "ZCC-3976",
	"ff8888": "ZCC-3977",
	"ff8899": "ZCC-3978",
	"ff88aa": "ZCC-3979",
	"ff88bb": "ZCC-3980",
	"ff88cc": "ZCC-3981",
	"ff88dd": "ZCC-3982",
	"ff88ee": "ZCC-3983",
	"ff88ff": "ZCC-3984",
	"ff9900": "ZCC-3985",
	"ff9911": "ZCC-3986",
	"ff9922": "ZCC-3987",
	"ff9933": "ZCC-3988",
	"ff9944": "ZCC-3989",
	"ff9955": "ZCC-3990",
	"ff9966": "ZCC-3991",
	"ff9977": "ZCC-3992",
	"ff9988": "ZCC-3993",
	"ff9999": "ZCC-3994",
	"ff99aa": "ZCC-3995",
	"ff99bb": "ZCC-3996",
	"ff99cc": "ZCC-3997",
	"ff99dd": "ZCC-3998",
	"ff99ee": "ZCC-3999",
	"ff99ff": "ZCC-4000",
	"ffaa00": "ZCC-4001",
	"ffaa11": "ZCC-4002",
	"ffaa22": "ZCC-4003",
	"ffaa33": "ZCC-4004",
	"ffaa44": "ZCC-4005",
	"ffaa55": "ZCC-4006",
	"ffaa66": "ZCC-4007",
	"ffaa77": "ZCC-4008",
	"ffaa88": "ZCC-4009",
	"ffaa99": "ZCC-4010",
	"ffaaaa": "ZCC-4011",
	"ffaabb": "ZCC-4012",
	"ffaacc": "ZCC-4013",
	"ffaadd": "ZCC-4014",
	"ffaaee": "ZCC-4015",
	"ffaaff": "ZCC-4016",
	"ffbb00": "ZCC-4017",
	"ffbb11": "ZCC-4018",
	"ffbb22": "ZCC-4019",
	"ffbb33": "ZCC-4020",
	"ffbb44": "ZCC-4021",
	"ffbb55": "ZCC-4022",
	"ffbb66": "ZCC-4023",
	"ffbb77": "ZCC-4024",
	"ffbb88": "ZCC-4025",
	"ffbb99": "ZCC-4026",
	"ffbbaa": "ZCC-4027",
	"ffbbbb": "ZCC-4028",
	"ffbbcc": "ZCC-4029",
	"ffbbdd": "ZCC-4030",
	"ffbbee": "ZCC-4031",
	"ffbbff": "ZCC-4032",
	"ffcc00": "ZCC-4033",
	"ffcc11": "ZCC-4034",
	"ffcc22": "ZCC-4035",
	"ffcc33": "ZCC-4036",
	"ffcc44": "ZCC-4037",
	"ffcc55": "ZCC-4038",
	"ffcc66": "ZCC-4039",
	"ffcc77": "ZCC-4040",
	"ffcc88": "ZCC-4041",
	"ffcc99": "ZCC-4042",
	"ffccaa": "ZCC-4043",
	"ffccbb": "ZCC-4044",
	"ffcccc": "ZCC-4045",
	"ffccdd": "ZCC-4046",
	"ffccee": "ZCC-4047",
	"ffccff": "ZCC-4048",
	"ffdd00": "ZCC-4049",
	"ffdd11": "ZCC-4050",
	"ffdd22": "ZCC-4051",
	"ffdd33": "ZCC-4052",
	"ffdd44": "ZCC-4053",
	"ffdd55": "ZCC-4054",
	"ffdd66": "ZCC-4055",
	"ffdd77": "ZCC-4056",
	"ffdd88": "ZCC-4057",
	"ffdd99": "ZCC-4058",
	"ffddaa": "ZCC-4059",
	"ffddbb": "ZCC-4060",
	"ffddcc": "ZCC-4061",
	"ffdddd": "ZCC-4062",
	"ffddee": "ZCC-4063",
	"ffddff": "ZCC-4064",
	"ffee00": "ZCC-4065",
	"ffee11": "ZCC-4066",
	"ffee22": "ZCC-4067",
	"ffee33": "ZCC-4068",
	"ffee44": "ZCC-4069",
	"ffee55": "ZCC-4070",
	"ffee66": "ZCC-4071",
	"ffee77": "ZCC-4072",
	"ffee88": "ZCC-4073",
	"ffee99": "ZCC-4074",
	"ffeeaa": "ZCC-4075",
	"ffeebb": "ZCC-4076",
	"ffeecc": "ZCC-4077",
	"ffeedd": "ZCC-4078",
	"ffeeee": "ZCC-4079",
	"ffeeff": "ZCC-4080",
	"ffff00": "ZCC-4081",
	"ffff11": "ZCC-4082",
	"ffff22": "ZCC-4083",
	"ffff33": "ZCC-4084",
	"ffff44": "ZCC-4085",
	"ffff55": "ZCC-4086",
	"ffff66": "ZCC-4087",
	"ffff77": "ZCC-4088",
	"ffff88": "ZCC-4089",
	"ffff99": "ZCC-4090",
	"ffffaa": "ZCC-4091",
	"ffffbb": "ZCC-4092",
	"ffffcc": "ZCC-4093",
	"ffffdd": "ZCC-4094",
	"ffffee": "ZCC-4095",
	"ffffff": "ZCC-4096"
}